{
    "myGameObjects": [
        {
            "myName": "Main Camera",
            "myTag": "MainCamera",
            "myID": 0,
            "myParent": -1,
            "myPosition": {
                "myX": 0.0,
                "myY": 1.0,
                "myZ": -10.0
            },
            "myRotation": {
                "myW": 1.0,
                "myX": 0.0,
                "myY": 0.0,
                "myZ": 0.0
            },
            "myScale": {
                "myX": 1.0,
                "myY": 1.0,
                "myZ": 1.0
            }
        },
        {
            "myName": "Directional Light",
            "myTag": "Untagged",
            "myID": 1,
            "myParent": -1,
            "myPosition": {
                "myX": 0.0,
                "myY": 3.0,
                "myZ": 0.0
            },
            "myRotation": {
                "myW": 0.8754261136054993,
                "myX": 0.4082178771495819,
                "myY": -0.23456968367099763,
                "myZ": 0.10938163101673126
            },
            "myScale": {
                "myX": 1.0,
                "myY": 1.0,
                "myZ": 1.0
            }
        },
        {
            "myName": "Canvas",
            "myTag": "Untagged",
            "myID": 2,
            "myParent": -1,
            "myPosition": {
                "myX": 960.0,
                "myY": 540.0,
                "myZ": 0.0
            },
            "myRotation": {
                "myW": 1.0,
                "myX": 0.0,
                "myY": 0.0,
                "myZ": 0.0
            },
            "myScale": {
                "myX": 1.0,
                "myY": 1.0,
                "myZ": 1.0
            }
        }
    ],
    "myMeshFilters": [],
    "myDirectionalLights": [
        {
            "myParent": 1,
            "myIntensity": 1.0,
            "myColor": {
                "myX": 1.0,
                "myY": 0.95686274766922,
                "myZ": 0.8392156958580017
            }
        }
    ],
    "myPointLights": [],
    "mySpotLights": [],
    "myCanvases": [
        {
            "myRenderMode": 0,
            "myParent": 2,
            "myWidth": 1920.0,
            "myHeight": 1080.0,
            "myTexts": [
                {
                    "myPosition": {
                        "myX": 0.5,
                        "myY": 0.18333333730697633
                    },
                    "myText": "Main Menu",
                    "myFontSize": 46,
                    "myFont": "Arial"
                }
            ],
            "myRawImages": [
                {
                    "myPosition": {
                        "myX": 0.887499988079071,
                        "myY": 0.1953703761100769
                    },
                    "myWidth": 0.2083333283662796,
                    "myHeight": 0.37037035822868349,
                    "myFileName": "ffgLogo"
                }
            ],
            "myButtons": [
                {
                    "myPosition": {
                        "myX": 0.5015104413032532,
                        "myY": 0.626203715801239
                    },
                    "myWidth": 0.0833333358168602,
                    "myHeight": 0.02777777798473835,
                    "mySpriteFileName": "roundParticle",
                    "myText": {
                        "myPosition": {
                            "myX": 0.0,
                            "myY": 0.0
                        },
                        "myText": "Start Game\n",
                        "myFontSize": 14,
                        "myFont": "Arial"
                    }
                },
                {
                    "myPosition": {
                        "myX": 0.5015104413032532,
                        "myY": 0.6725000143051148
                    },
                    "myWidth": 0.0833333358168602,
                    "myHeight": 0.02777777798473835,
                    "mySpriteFileName": "roundParticle",
                    "myText": {
                        "myPosition": {
                            "myX": 0.0,
                            "myY": 0.0
                        },
                        "myText": "Options",
                        "myFontSize": 14,
                        "myFont": "Arial"
                    }
                },
                {
                    "myPosition": {
                        "myX": 0.5015104413032532,
                        "myY": 0.7187963128089905
                    },
                    "myWidth": 0.0833333358168602,
                    "myHeight": 0.02777777798473835,
                    "mySpriteFileName": "roundParticle",
                    "myText": {
                        "myPosition": {
                            "myX": 0.0,
                            "myY": 0.0
                        },
                        "myText": "Showroom",
                        "myFontSize": 14,
                        "myFont": "Arial"
                    }
                },
                {
                    "myPosition": {
                        "myX": 0.5015104413032532,
                        "myY": 0.7650926113128662
                    },
                    "myWidth": 0.0833333358168602,
                    "myHeight": 0.02777777798473835,
                    "mySpriteFileName": "roundParticle",
                    "myText": {
                        "myPosition": {
                            "myX": 0.0,
                            "myY": 0.0
                        },
                        "myText": "Credits",
                        "myFontSize": 14,
                        "myFont": "Arial"
                    }
                },
                {
                    "myPosition": {
                        "myX": 0.5015104413032532,
                        "myY": 0.8113888502120972
                    },
                    "myWidth": 0.0833333358168602,
                    "myHeight": 0.02777777798473835,
                    "mySpriteFileName": "roundParticle",
                    "myText": {
                        "myPosition": {
                            "myX": 0.0,
                            "myY": 0.0
                        },
                        "myText": "Exit to Desktop\n",
                        "myFontSize": 14,
                        "myFont": "Arial"
                    }
                }
            ]
        }
    ]
}