{
	"hoopIcon": { "x": 0.082, "y": 0.075 },
	"hoopPercentageText": { "x": 0.06, "y": 0.05 },
	"timeIcon": { "x": 1.0, "y": 0.0 },
	"timeText": { "x": 0.825, "y": 0.05 },
	"firstBird": { "x": 0.035, "y": 0.18 },
	"secondBird": { "x": 0.075, "y": 0.18 },
	"thirdBird": { "x": 0.115, "y": 0.18 }
}