{
	"Tutorial": 
	{
		"timeToBeatIcon": { "x": 0.325, "y": 0.54 },
		"timeToBeatText": { "x": 0.345, "y": 0.508 },
		"timeIcon": { "x": 0.66, "y": 0.54 },
		"timeText": { "x": 0.55, "y": 0.508 },
		"firstBird": { "x": 0.46, "y": 0.505 },
		"secondBird": { "x": 0.49, "y": 0.505 },
		"thirdBird": { "x": 0.52, "y": 0.505 }
	},
	"Village": 
	{
		"timeIcon": {"x": 0.651, "y": 0.49 },
		"timeText": { "x": 0.545, "y": 0.46 },
		"timeToBeatIcon": { "x": 0.322, "y": 0.49  },
		"timeToBeatText": { "x": 0.345, "y": 0.46 },
		"firstBird": { "x": 0.475, "y": 0.393 },
		"secondBird": { "x": 0.505, "y": 0.393 },
		"thirdBird": { "x": 0.535, "y": 0.393 }
	},
	"Pillars": 
	{
		"timeIcon": { "x": 0.65, "y": 0.539 },
		"timeText": { "x": 0.545, "y": 0.509 },
		"timeToBeatIcon": { "x": 0.315, "y": 0.539 },
		"timeToBeatText": { "x": 0.340, "y": 0.509 },
		"firstBird": { "x": 0.412, "y": 0.595 },
		"secondBird": { "x": 0.442, "y": 0.595 },
		"thirdBird": { "x": 0.472, "y": 0.595 }
	},
	"Roots": 
	{
		"timeIcon": { "x": 0.665, "y": 0.524 },
		"timeText": { "x": 0.558, "y": 0.495 },
		"timeToBeatIcon": { "x": 0.331, "y": 0.524 },
		"timeToBeatText": { "x": 0.354, "y": 0.495 },
		"firstBird": { "x": 0.458, "y": 0.326 },
		"secondBird": { "x": 0.491, "y": 0.326 },
		"thirdBird": { "x": 0.523, "y": 0.326 }
	},
	"Buttons":
	{
		"leftArrow": { "x": 0.07, "y": 0.9 },
		"rightArrow": { "x": 0.93, "y": 0.9 },
		"startLevel": { "x": 0.5, "y": 0.815 },
		"back": { "x": 0.5, "y": 0.90 },
		"unlockOK": { "x": 0.5, "y": 0.65 }
	}
}