info face=Mono size=32 bold=0 italic=0 charset= unicode= stretchH=100 smooth=1 aa=1 padding=1,1,1,1 spacing=0,0 outline=0
common lineHeight=39.9 base=28 scaleW=256 scaleH=256 pages=1 packed=0
page id=0 file="Mono.png"
chars count=94
char id=48 x=1 y=1 width=20 height=31 xoffset=3.08 yoffset=2.53 xadvance=18.78 page=0 chnl=15
char id=49 x=1 y=33 width=13 height=30 xoffset=6.5 yoffset=2.56 xadvance=18.69 page=0 chnl=15
char id=50 x=1 y=64 width=20 height=30 xoffset=3.14 yoffset=2.56 xadvance=18.78 page=0 chnl=15
char id=51 x=1 y=95 width=21 height=31 xoffset=3.02 yoffset=2.53 xadvance=18.75 page=0 chnl=15
char id=52 x=15 y=33 width=21 height=30 xoffset=2.89 yoffset=3.23 xadvance=18.78 page=0 chnl=15
char id=53 x=22 y=64 width=21 height=30 xoffset=3.02 yoffset=3.2 xadvance=18.78 page=0 chnl=15
char id=54 x=22 y=1 width=21 height=31 xoffset=2.98 yoffset=2.53 xadvance=18.78 page=0 chnl=15
char id=55 x=37 y=33 width=20 height=30 xoffset=3.14 yoffset=3.23 xadvance=18.78 page=0 chnl=15
char id=56 x=44 y=1 width=20 height=31 xoffset=3.11 yoffset=2.53 xadvance=18.78 page=0 chnl=15
char id=57 x=1 y=127 width=21 height=31 xoffset=2.98 yoffset=2.53 xadvance=18.78 page=0 chnl=15
char id=65 x=1 y=159 width=24 height=30 xoffset=1.13 yoffset=2.69 xadvance=18.78 page=0 chnl=15
char id=66 x=23 y=95 width=20 height=30 xoffset=3.08 yoffset=2.72 xadvance=18.78 page=0 chnl=15
char id=67 x=23 y=126 width=21 height=32 xoffset=2.7 yoffset=2.05 xadvance=18.78 page=0 chnl=15
char id=68 x=44 y=64 width=21 height=30 xoffset=2.98 yoffset=2.72 xadvance=18.82 page=0 chnl=15
char id=69 x=58 y=33 width=19 height=30 xoffset=3.72 yoffset=2.72 xadvance=18.78 page=0 chnl=15
char id=70 x=44 y=95 width=20 height=30 xoffset=3.53 yoffset=2.72 xadvance=18.82 page=0 chnl=15
char id=71 x=1 y=190 width=21 height=32 xoffset=2.57 yoffset=2.05 xadvance=18.78 page=0 chnl=15
char id=72 x=65 y=1 width=20 height=30 xoffset=3.37 yoffset=2.72 xadvance=18.78 page=0 chnl=15
char id=73 x=1 y=223 width=16 height=30 xoffset=5.1 yoffset=2.72 xadvance=18.78 page=0 chnl=15
char id=74 x=18 y=223 width=20 height=31 xoffset=3.37 yoffset=2.69 xadvance=18.69 page=0 chnl=15
char id=75 x=23 y=190 width=22 height=30 xoffset=2.54 yoffset=2.72 xadvance=18.85 page=0 chnl=15
char id=76 x=26 y=159 width=19 height=30 xoffset=3.62 yoffset=2.72 xadvance=18.82 page=0 chnl=15
char id=77 x=45 y=126 width=21 height=30 xoffset=2.79 yoffset=2.72 xadvance=18.78 page=0 chnl=15
char id=78 x=65 y=95 width=20 height=30 xoffset=3.46 yoffset=2.72 xadvance=18.78 page=0 chnl=15
char id=79 x=39 y=221 width=21 height=32 xoffset=2.57 yoffset=2.05 xadvance=18.78 page=0 chnl=15
char id=80 x=66 y=64 width=19 height=30 xoffset=3.56 yoffset=2.72 xadvance=18.82 page=0 chnl=15
char id=81 x=46 y=157 width=21 height=36 xoffset=2.57 yoffset=2.05 xadvance=18.78 page=0 chnl=15
char id=82 x=67 y=126 width=20 height=30 xoffset=3.34 yoffset=2.72 xadvance=18.78 page=0 chnl=15
char id=83 x=61 y=194 width=21 height=32 xoffset=2.82 yoffset=2.08 xadvance=18.78 page=0 chnl=15
char id=84 x=78 y=32 width=21 height=30 xoffset=2.6 yoffset=2.72 xadvance=18.78 page=0 chnl=15
char id=85 x=68 y=157 width=20 height=31 xoffset=3.11 yoffset=2.69 xadvance=18.78 page=0 chnl=15
char id=86 x=86 y=1 width=22 height=30 xoffset=2.12 yoffset=2.69 xadvance=18.78 page=0 chnl=15
char id=87 x=86 y=63 width=25 height=30 xoffset=1 yoffset=2.69 xadvance=18.78 page=0 chnl=15
char id=88 x=100 y=32 width=22 height=30 xoffset=2.31 yoffset=2.69 xadvance=18.78 page=0 chnl=15
char id=89 x=109 y=1 width=23 height=30 xoffset=1.9 yoffset=2.69 xadvance=18.78 page=0 chnl=15
char id=90 x=86 y=94 width=21 height=30 xoffset=2.82 yoffset=2.72 xadvance=18.78 page=0 chnl=15
char id=97 x=61 y=227 width=20 height=26 xoffset=3.27 yoffset=7.33 xadvance=18.78 page=0 chnl=15
char id=98 x=83 y=189 width=19 height=32 xoffset=3.56 yoffset=1.89 xadvance=18.82 page=0 chnl=15
char id=99 x=82 y=227 width=19 height=26 xoffset=3.59 yoffset=7.33 xadvance=18.78 page=0 chnl=15
char id=100 x=102 y=222 width=19 height=32 xoffset=3.53 yoffset=1.89 xadvance=18.75 page=0 chnl=15
char id=101 x=88 y=125 width=19 height=26 xoffset=3.62 yoffset=7.33 xadvance=18.78 page=0 chnl=15
char id=102 x=89 y=152 width=19 height=31 xoffset=3.56 yoffset=1.92 xadvance=18.75 page=0 chnl=15
char id=103 x=103 y=184 width=19 height=33 xoffset=3.53 yoffset=7.04 xadvance=18.75 page=0 chnl=15
char id=104 x=122 y=218 width=18 height=31 xoffset=4.04 yoffset=1.92 xadvance=18.78 page=0 chnl=15
char id=105 x=108 y=94 width=19 height=31 xoffset=3.56 yoffset=1.92 xadvance=18.82 page=0 chnl=15
char id=106 x=109 y=126 width=13 height=38 xoffset=6.57 yoffset=1.6 xadvance=18.72 page=0 chnl=15
char id=107 x=123 y=32 width=19 height=31 xoffset=3.69 yoffset=1.92 xadvance=18.82 page=0 chnl=15
char id=108 x=123 y=126 width=19 height=31 xoffset=3.56 yoffset=1.92 xadvance=18.82 page=0 chnl=15
char id=109 x=112 y=64 width=21 height=25 xoffset=3.02 yoffset=7.36 xadvance=18.78 page=0 chnl=15
char id=110 x=133 y=1 width=18 height=25 xoffset=4.04 yoffset=7.36 xadvance=18.78 page=0 chnl=15
char id=111 x=128 y=90 width=20 height=26 xoffset=3.3 yoffset=7.33 xadvance=18.78 page=0 chnl=15
char id=112 x=123 y=158 width=19 height=33 xoffset=3.56 yoffset=7.04 xadvance=18.82 page=0 chnl=15
char id=113 x=143 y=27 width=19 height=33 xoffset=3.53 yoffset=7.04 xadvance=18.75 page=0 chnl=15
char id=114 x=152 y=1 width=19 height=25 xoffset=5.03 yoffset=7.36 xadvance=18.85 page=0 chnl=15
char id=115 x=143 y=61 width=19 height=26 xoffset=3.85 yoffset=7.33 xadvance=18.78 page=0 chnl=15
char id=116 x=141 y=192 width=19 height=30 xoffset=3.66 yoffset=3.3 xadvance=18.75 page=0 chnl=15
char id=117 x=141 y=223 width=18 height=25 xoffset=4.04 yoffset=7.97 xadvance=18.78 page=0 chnl=15
char id=118 x=160 y=223 width=21 height=25 xoffset=2.98 yoffset=8 xadvance=18.78 page=0 chnl=15
char id=119 x=143 y=117 width=24 height=25 xoffset=1.38 yoffset=8 xadvance=18.78 page=0 chnl=15
char id=120 x=149 y=88 width=21 height=25 xoffset=2.95 yoffset=8 xadvance=18.78 page=0 chnl=15
char id=121 x=143 y=143 width=21 height=32 xoffset=2.86 yoffset=7.68 xadvance=18.78 page=0 chnl=15
char id=122 x=161 y=176 width=19 height=25 xoffset=3.78 yoffset=8 xadvance=18.78 page=0 chnl=15
char id=32 x=45 y=157 width=0 height=0 xoffset=0 yoffset=26.2 xadvance=18.3 page=0 chnl=15
char id=33 x=165 y=143 width=10 height=30 xoffset=8.26 yoffset=2.69 xadvance=18.78 page=0 chnl=15
char id=34 x=143 y=176 width=12 height=15 xoffset=7.18 yoffset=2.59 xadvance=18.78 page=0 chnl=15
char id=35 x=163 y=27 width=21 height=31 xoffset=2.82 yoffset=2.11 xadvance=18.78 page=0 chnl=15
char id=36 x=171 y=59 width=21 height=36 xoffset=2.98 yoffset=0.64 xadvance=18.78 page=0 chnl=15
char id=37 x=171 y=96 width=23 height=30 xoffset=1.74 yoffset=2.56 xadvance=18.78 page=0 chnl=15
char id=38 x=176 y=127 width=23 height=31 xoffset=1.99 yoffset=2.11 xadvance=18.82 page=0 chnl=15
char id=39 x=134 y=64 width=8 height=15 xoffset=9.38 yoffset=2.59 xadvance=18.78 page=0 chnl=15
char id=40 x=185 y=1 width=13 height=38 xoffset=6.98 yoffset=1.86 xadvance=18.82 page=0 chnl=15
char id=41 x=193 y=40 width=13 height=38 xoffset=6.95 yoffset=1.86 xadvance=18.75 page=0 chnl=15
char id=42 x=161 y=202 width=18 height=19 xoffset=4.39 yoffset=3.23 xadvance=18.78 page=0 chnl=15
char id=43 x=199 y=1 width=20 height=23 xoffset=3.34 yoffset=5.79 xadvance=18.78 page=0 chnl=15
char id=44 x=109 y=165 width=11 height=18 xoffset=7.91 yoffset=20.67 xadvance=18.75 page=0 chnl=15
char id=45 x=46 y=194 width=13 height=9 xoffset=6.73 yoffset=16.06 xadvance=18.78 page=0 chnl=15
char id=46 x=172 y=1 width=10 height=11 xoffset=8.3 yoffset=21.06 xadvance=18.78 page=0 chnl=15
char id=47 x=195 y=79 width=15 height=34 xoffset=5.67 yoffset=1.95 xadvance=18.78 page=0 chnl=15
char id=91 x=207 y=25 width=12 height=36 xoffset=7.43 yoffset=2.43 xadvance=18.78 page=0 chnl=15
char id=92 x=220 y=1 width=15 height=34 xoffset=5.67 yoffset=1.95 xadvance=18.78 page=0 chnl=15
char id=93 x=236 y=1 width=12 height=36 xoffset=7.4 yoffset=2.43 xadvance=18.75 page=0 chnl=15
char id=94 x=123 y=192 width=16 height=14 xoffset=5.1 yoffset=4.06 xadvance=18.78 page=0 chnl=15
char id=95 x=195 y=114 width=24 height=8 xoffset=1.26 yoffset=31.23 xadvance=18.78 page=0 chnl=15
char id=123 x=211 y=62 width=16 height=38 xoffset=5.19 yoffset=1.79 xadvance=18.78 page=0 chnl=15
char id=124 x=228 y=38 width=8 height=41 xoffset=9.29 yoffset=0 xadvance=18.78 page=0 chnl=15
char id=125 x=237 y=38 width=16 height=38 xoffset=5.19 yoffset=1.79 xadvance=18.78 page=0 chnl=15
char id=126 x=211 y=101 width=20 height=10 xoffset=3.21 yoffset=14.18 xadvance=18.78 page=0 chnl=15
char id=58 x=237 y=77 width=10 height=25 xoffset=8.3 yoffset=8 xadvance=18.78 page=0 chnl=15
char id=59 x=232 y=103 width=11 height=32 xoffset=7.91 yoffset=7.68 xadvance=18.75 page=0 chnl=15
char id=60 x=200 y=123 width=20 height=23 xoffset=3.34 yoffset=6.05 xadvance=18.78 page=0 chnl=15
char id=61 x=176 y=159 width=20 height=15 xoffset=3.34 yoffset=10.08 xadvance=18.78 page=0 chnl=15
char id=62 x=221 y=136 width=20 height=23 xoffset=3.34 yoffset=6.05 xadvance=18.78 page=0 chnl=15
char id=63 x=200 y=147 width=19 height=31 xoffset=3.85 yoffset=2.08 xadvance=18.78 page=0 chnl=15
char id=64 x=181 y=179 width=22 height=32 xoffset=2.54 yoffset=2.05 xadvance=18.82 page=0 chnl=15
char id=32 x=0 y=0 width=0 height=0 xoffset=2.54 yoffset=2.05 xadvance=18.3 page=0 chnl=15
kernings count=1419
kerning first=48 second=49 amount=-1.54
kerning first=48 second=73 amount=-1.38
kerning first=48 second=91 amount=-2.08
kerning first=48 second=92 amount=-2.66
kerning first=48 second=93 amount=-4.29
kerning first=48 second=95 amount=-16.93
kerning first=48 second=106 amount=-2.11
kerning first=48 second=124 amount=-3.94
kerning first=48 second=125 amount=-2.46
kerning first=49 second=48 amount=-1.15
kerning first=49 second=49 amount=-4.58
kerning first=49 second=50 amount=-1.22
kerning first=49 second=51 amount=-1.09
kerning first=49 second=52 amount=-0.96
kerning first=49 second=53 amount=-1.12
kerning first=49 second=54 amount=-1.06
kerning first=49 second=55 amount=-1.25
kerning first=49 second=56 amount=-1.22
kerning first=49 second=57 amount=-1.09
kerning first=49 second=66 amount=-1.18
kerning first=49 second=67 amount=-0.8
kerning first=49 second=68 amount=-1.06
kerning first=49 second=69 amount=-1.79
kerning first=49 second=70 amount=-1.63
kerning first=49 second=71 amount=-0.67
kerning first=49 second=72 amount=-1.44
kerning first=49 second=73 amount=-3.2
kerning first=49 second=74 amount=-1.47
kerning first=49 second=76 amount=-1.73
kerning first=49 second=77 amount=-0.86
kerning first=49 second=78 amount=-1.54
kerning first=49 second=79 amount=-0.67
kerning first=49 second=80 amount=-1.66
kerning first=49 second=81 amount=-0.67
kerning first=49 second=82 amount=-1.44
kerning first=49 second=83 amount=-0.9
kerning first=49 second=84 amount=-0.67
kerning first=49 second=85 amount=-1.22
kerning first=49 second=90 amount=-0.9
kerning first=49 second=91 amount=-5.5
kerning first=49 second=92 amount=-3.81
kerning first=49 second=93 amount=-5.5
kerning first=49 second=94 amount=-3.2
kerning first=49 second=95 amount=-13.41
kerning first=49 second=97 amount=-1.38
kerning first=49 second=98 amount=-1.63
kerning first=49 second=99 amount=-1.7
kerning first=49 second=100 amount=-1.6
kerning first=49 second=101 amount=-1.73
kerning first=49 second=102 amount=-1.63
kerning first=49 second=103 amount=-1.6
kerning first=49 second=104 amount=-2.14
kerning first=49 second=105 amount=-1.66
kerning first=49 second=106 amount=-5.38
kerning first=49 second=107 amount=-1.79
kerning first=49 second=108 amount=-1.66
kerning first=49 second=109 amount=-1.09
kerning first=49 second=110 amount=-2.14
kerning first=49 second=111 amount=-1.41
kerning first=49 second=112 amount=-1.63
kerning first=49 second=113 amount=-1.6
kerning first=49 second=114 amount=-2.11
kerning first=49 second=115 amount=-1.95
kerning first=49 second=116 amount=-1.76
kerning first=49 second=117 amount=-2.14
kerning first=49 second=118 amount=-1.06
kerning first=49 second=120 amount=-1.06
kerning first=49 second=121 amount=-0.96
kerning first=49 second=122 amount=-1.86
kerning first=49 second=123 amount=-3.3
kerning first=49 second=124 amount=-7.36
kerning first=49 second=125 amount=-3.3
kerning first=49 second=126 amount=-1.31
kerning first=50 second=49 amount=-1.22
kerning first=50 second=52 amount=-0.74
kerning first=50 second=91 amount=-2.14
kerning first=50 second=92 amount=-2.02
kerning first=50 second=93 amount=-3.52
kerning first=50 second=95 amount=-16.86
kerning first=50 second=106 amount=-2.02
kerning first=50 second=123 amount=-2.66
kerning first=50 second=124 amount=-4
kerning first=50 second=125 amount=-1.73
kerning first=51 second=49 amount=-1.89
kerning first=51 second=73 amount=-0.67
kerning first=51 second=91 amount=-2.02
kerning first=51 second=92 amount=-2.5
kerning first=51 second=93 amount=-3.81
kerning first=51 second=94 amount=-0.64
kerning first=51 second=95 amount=-16.99
kerning first=51 second=106 amount=-2.66
kerning first=51 second=124 amount=-3.87
kerning first=51 second=125 amount=-1.98
kerning first=52 second=49 amount=-3.97
kerning first=52 second=55 amount=-0.64
kerning first=52 second=73 amount=-2.56
kerning first=52 second=91 amount=-1.89
kerning first=52 second=92 amount=-3.46
kerning first=52 second=93 amount=-4.9
kerning first=52 second=94 amount=-2.56
kerning first=52 second=95 amount=-17.12
kerning first=52 second=102 amount=-1.02
kerning first=52 second=105 amount=-1.06
kerning first=52 second=106 amount=-4.77
kerning first=52 second=108 amount=-1.06
kerning first=52 second=116 amount=-1.15
kerning first=52 second=124 amount=-3.74
kerning first=52 second=125 amount=-2.69
kerning first=52 second=126 amount=-0.7
kerning first=53 second=49 amount=-6.05
kerning first=53 second=73 amount=-0.86
kerning first=53 second=91 amount=-2.05
kerning first=53 second=92 amount=-1.76
kerning first=53 second=93 amount=-3.17
kerning first=53 second=94 amount=-3.17
kerning first=53 second=95 amount=-16.96
kerning first=53 second=106 amount=-6.08
kerning first=53 second=116 amount=-2.46
kerning first=53 second=124 amount=-3.9
kerning first=53 second=125 amount=-0.99
kerning first=54 second=49 amount=-1.25
kerning first=54 second=73 amount=-0.7
kerning first=54 second=91 amount=-1.98
kerning first=54 second=92 amount=-1.95
kerning first=54 second=93 amount=-3.33
kerning first=54 second=95 amount=-17.02
kerning first=54 second=106 amount=-2.02
kerning first=54 second=124 amount=-3.84
kerning first=54 second=125 amount=-1.5
kerning first=55 second=49 amount=-2.05
kerning first=55 second=52 amount=-4.03
kerning first=55 second=65 amount=-2.34
kerning first=55 second=74 amount=-4.42
kerning first=55 second=91 amount=-2.18
kerning first=55 second=92 amount=-0.74
kerning first=55 second=93 amount=-2.14
kerning first=55 second=94 amount=-2.69
kerning first=55 second=95 amount=-16.86
kerning first=55 second=97 amount=-1.89
kerning first=55 second=99 amount=-2.66
kerning first=55 second=100 amount=-2.62
kerning first=55 second=101 amount=-2.66
kerning first=55 second=102 amount=-1.44
kerning first=55 second=103 amount=-2.24
kerning first=55 second=105 amount=-3.71
kerning first=55 second=106 amount=-3.55
kerning first=55 second=111 amount=-2.34
kerning first=55 second=113 amount=-2.24
kerning first=55 second=115 amount=-2.05
kerning first=55 second=123 amount=-4.22
kerning first=55 second=124 amount=-4.03
kerning first=55 second=126 amount=-3.84
kerning first=56 second=49 amount=-1.95
kerning first=56 second=73 amount=-0.7
kerning first=56 second=91 amount=-2.14
kerning first=56 second=92 amount=-2.53
kerning first=56 second=93 amount=-3.9
kerning first=56 second=94 amount=-0.77
kerning first=56 second=95 amount=-16.9
kerning first=56 second=106 amount=-2.72
kerning first=56 second=124 amount=-4
kerning first=56 second=125 amount=-2.08
kerning first=57 second=49 amount=-1.38
kerning first=57 second=73 amount=-1.54
kerning first=57 second=91 amount=-1.98
kerning first=57 second=92 amount=-2.46
kerning first=57 second=93 amount=-4.16
kerning first=57 second=95 amount=-17.02
kerning first=57 second=106 amount=-1.95
kerning first=57 second=124 amount=-3.84
kerning first=57 second=125 amount=-2.37
kerning first=65 second=49 amount=-4.16
kerning first=65 second=84 amount=-1.73
kerning first=65 second=86 amount=-1.54
kerning first=65 second=89 amount=-1.86
kerning first=65 second=92 amount=-4.8
kerning first=65 second=93 amount=-3.39
kerning first=65 second=94 amount=-2.72
kerning first=65 second=95 amount=-18.66
kerning first=65 second=106 amount=-4.19
kerning first=65 second=116 amount=-1.28
kerning first=65 second=118 amount=-1.57
kerning first=65 second=121 amount=-1.5
kerning first=65 second=124 amount=-2.02
kerning first=65 second=125 amount=-1.54
kerning first=66 second=49 amount=-2.11
kerning first=66 second=73 amount=-0.77
kerning first=66 second=91 amount=-2.11
kerning first=66 second=92 amount=-2.62
kerning first=66 second=93 amount=-3.87
kerning first=66 second=94 amount=-0.93
kerning first=66 second=95 amount=-16.93
kerning first=66 second=106 amount=-2.91
kerning first=66 second=124 amount=-3.97
kerning first=66 second=125 amount=-2.02
kerning first=67 second=49 amount=-1.12
kerning first=67 second=73 amount=-1.12
kerning first=67 second=91 amount=-1.73
kerning first=67 second=92 amount=-2.14
kerning first=67 second=93 amount=-3.71
kerning first=67 second=95 amount=-17.31
kerning first=67 second=102 amount=-2.72
kerning first=67 second=106 amount=-1.92
kerning first=67 second=124 amount=-3.58
kerning first=67 second=125 amount=-1.86
kerning first=68 second=49 amount=-1.44
kerning first=68 second=73 amount=-1.63
kerning first=68 second=91 amount=-1.98
kerning first=68 second=92 amount=-2.53
kerning first=68 second=93 amount=-4.32
kerning first=68 second=95 amount=-17.06
kerning first=68 second=106 amount=-1.98
kerning first=68 second=124 amount=-3.84
kerning first=68 second=125 amount=-2.56
kerning first=69 second=49 amount=-6.5
kerning first=69 second=91 amount=-2.72
kerning first=69 second=92 amount=-1.41
kerning first=69 second=93 amount=-2.94
kerning first=69 second=94 amount=-4.13
kerning first=69 second=95 amount=-16.32
kerning first=69 second=106 amount=-6.78
kerning first=69 second=116 amount=-3.84
kerning first=69 second=118 amount=-0.93
kerning first=69 second=121 amount=-0.9
kerning first=69 second=123 amount=-3.97
kerning first=69 second=124 amount=-4.58
kerning first=69 second=125 amount=-0.74
kerning first=70 second=49 amount=-6.08
kerning first=70 second=52 amount=-1.15
kerning first=70 second=65 amount=-1.73
kerning first=70 second=74 amount=-9.41
kerning first=70 second=91 amount=-2.56
kerning first=70 second=92 amount=-0.99
kerning first=70 second=93 amount=-2.53
kerning first=70 second=94 amount=-3.71
kerning first=70 second=95 amount=-16.51
kerning first=70 second=97 amount=-1.12
kerning first=70 second=99 amount=-0.8
kerning first=70 second=100 amount=-0.74
kerning first=70 second=101 amount=-0.83
kerning first=70 second=102 amount=-0.7
kerning first=70 second=103 amount=-0.7
kerning first=70 second=105 amount=-4.1
kerning first=70 second=106 amount=-6.59
kerning first=70 second=110 amount=-1.22
kerning first=70 second=112 amount=-0.7
kerning first=70 second=113 amount=-0.7
kerning first=70 second=114 amount=-1.18
kerning first=70 second=115 amount=-1.38
kerning first=70 second=116 amount=-3.42
kerning first=70 second=117 amount=-1.22
kerning first=70 second=118 amount=-1.63
kerning first=70 second=120 amount=-3.2
kerning first=70 second=121 amount=-1.6
kerning first=70 second=122 amount=-6.62
kerning first=70 second=123 amount=-4.64
kerning first=70 second=124 amount=-4.42
kerning first=71 second=49 amount=-0.93
kerning first=71 second=91 amount=-1.57
kerning first=71 second=92 amount=-1.89
kerning first=71 second=93 amount=-3.36
kerning first=71 second=95 amount=-17.41
kerning first=71 second=102 amount=-2.59
kerning first=71 second=106 amount=-1.73
kerning first=71 second=124 amount=-3.42
kerning first=71 second=125 amount=-1.47
kerning first=72 second=49 amount=-1.44
kerning first=72 second=91 amount=-2.37
kerning first=72 second=92 amount=-0.8
kerning first=72 second=93 amount=-2.34
kerning first=72 second=95 amount=-16.64
kerning first=72 second=106 amount=-2.21
kerning first=72 second=124 amount=-4.22
kerning first=73 second=48 amount=-1.41
kerning first=73 second=49 amount=-7.07
kerning first=73 second=51 amount=-0.7
kerning first=73 second=52 amount=-3.46
kerning first=73 second=53 amount=-0.67
kerning first=73 second=54 amount=-1.25
kerning first=73 second=56 amount=-0.7
kerning first=73 second=67 amount=-1.34
kerning first=73 second=71 amount=-1.38
kerning first=73 second=73 amount=-1.79
kerning first=73 second=74 amount=-0.83
kerning first=73 second=79 amount=-1.22
kerning first=73 second=81 amount=-1.22
kerning first=73 second=83 amount=-0.74
kerning first=73 second=91 amount=-4.13
kerning first=73 second=92 amount=-2.56
kerning first=73 second=93 amount=-4.1
kerning first=73 second=94 amount=-5.28
kerning first=73 second=95 amount=-14.91
kerning first=73 second=99 amount=-1.73
kerning first=73 second=100 amount=-1.47
kerning first=73 second=101 amount=-1.73
kerning first=73 second=102 amount=-4.13
kerning first=73 second=103 amount=-1.76
kerning first=73 second=104 amount=-0.74
kerning first=73 second=106 amount=-7.87
kerning first=73 second=110 amount=-0.74
kerning first=73 second=111 amount=-1.44
kerning first=73 second=113 amount=-1.76
kerning first=73 second=114 amount=-0.74
kerning first=73 second=115 amount=-1.15
kerning first=73 second=116 amount=-4.26
kerning first=73 second=117 amount=-1.09
kerning first=73 second=118 amount=-3.55
kerning first=73 second=119 amount=-1.5
kerning first=73 second=121 amount=-3.46
kerning first=73 second=123 amount=-5.79
kerning first=73 second=124 amount=-5.95
kerning first=73 second=125 amount=-1.89
kerning first=73 second=126 amount=-3.81
kerning first=74 second=49 amount=-1.47
kerning first=74 second=91 amount=-2.4
kerning first=74 second=92 amount=-0.7
kerning first=74 second=93 amount=-2.37
kerning first=74 second=95 amount=-16.54
kerning first=74 second=106 amount=-2.24
kerning first=74 second=124 amount=-4.26
kerning first=75 second=49 amount=-4.45
kerning first=75 second=91 amount=-1.54
kerning first=75 second=93 amount=-1.76
kerning first=75 second=94 amount=-4.8
kerning first=75 second=95 amount=-17.54
kerning first=75 second=101 amount=-0.64
kerning first=75 second=102 amount=-2.56
kerning first=75 second=103 amount=-0.67
kerning first=75 second=106 amount=-5.6
kerning first=75 second=113 amount=-0.67
kerning first=75 second=116 amount=-2.85
kerning first=75 second=118 amount=-1.34
kerning first=75 second=121 amount=-0.83
kerning first=75 second=123 amount=-3.55
kerning first=75 second=124 amount=-3.39
kerning first=75 second=126 amount=-2.88
kerning first=76 second=49 amount=-6.62
kerning first=76 second=52 amount=-7.36
kerning first=76 second=55 amount=-1.25
kerning first=76 second=84 amount=-4.22
kerning first=76 second=86 amount=-3.33
kerning first=76 second=89 amount=-4.35
kerning first=76 second=91 amount=-2.62
kerning first=76 second=92 amount=-6.66
kerning first=76 second=93 amount=-5.89
kerning first=76 second=94 amount=-11.07
kerning first=76 second=95 amount=-16.42
kerning first=76 second=102 amount=-3.65
kerning first=76 second=106 amount=-6.69
kerning first=76 second=116 amount=-3.78
kerning first=76 second=118 amount=-3.36
kerning first=76 second=121 amount=-3.2
kerning first=76 second=123 amount=-4.64
kerning first=76 second=124 amount=-4.48
kerning first=76 second=125 amount=-4.03
kerning first=76 second=126 amount=-9.18
kerning first=77 second=49 amount=-0.86
kerning first=77 second=91 amount=-1.79
kerning first=77 second=93 amount=-1.79
kerning first=77 second=95 amount=-17.22
kerning first=77 second=106 amount=-1.66
kerning first=77 second=124 amount=-3.65
kerning first=78 second=49 amount=-1.54
kerning first=78 second=91 amount=-2.46
kerning first=78 second=92 amount=-0.9
kerning first=78 second=93 amount=-2.46
kerning first=78 second=95 amount=-16.54
kerning first=78 second=106 amount=-2.34
kerning first=78 second=124 amount=-4.32
kerning first=79 second=49 amount=-1.09
kerning first=79 second=73 amount=-1.25
kerning first=79 second=91 amount=-1.6
kerning first=79 second=92 amount=-2.21
kerning first=79 second=93 amount=-3.84
kerning first=79 second=95 amount=-17.44
kerning first=79 second=106 amount=-1.63
kerning first=79 second=124 amount=-3.46
kerning first=79 second=125 amount=-1.98
kerning first=80 second=49 amount=-1.66
kerning first=80 second=52 amount=-1.22
kerning first=80 second=65 amount=-1.09
kerning first=80 second=73 amount=-1.09
kerning first=80 second=74 amount=-9.41
kerning first=80 second=91 amount=-2.56
kerning first=80 second=92 amount=-2.34
kerning first=80 second=93 amount=-3.68
kerning first=80 second=95 amount=-16.48
kerning first=80 second=105 amount=-4.22
kerning first=80 second=106 amount=-2.43
kerning first=80 second=108 amount=-1.5
kerning first=80 second=123 amount=-3.62
kerning first=80 second=124 amount=-4.42
kerning first=80 second=125 amount=-1.82
kerning first=80 second=126 amount=-0.93
kerning first=81 second=49 amount=-1.09
kerning first=81 second=73 amount=-1.25
kerning first=81 second=91 amount=-1.6
kerning first=81 second=92 amount=-2.21
kerning first=81 second=93 amount=-3.26
kerning first=81 second=106 amount=-1.63
kerning first=81 second=124 amount=-3.46
kerning first=81 second=125 amount=-1.06
kerning first=82 second=49 amount=-2.11
kerning first=82 second=91 amount=-2.37
kerning first=82 second=92 amount=-2.78
kerning first=82 second=93 amount=-4.13
kerning first=82 second=94 amount=-0.74
kerning first=82 second=95 amount=-16.67
kerning first=82 second=106 amount=-2.88
kerning first=82 second=123 amount=-1.34
kerning first=82 second=124 amount=-4.22
kerning first=82 second=125 amount=-2.27
kerning first=83 second=49 amount=-1.47
kerning first=83 second=91 amount=-1.82
kerning first=83 second=92 amount=-2.21
kerning first=83 second=93 amount=-3.52
kerning first=83 second=95 amount=-17.18
kerning first=83 second=102 amount=-2.78
kerning first=83 second=106 amount=-2.27
kerning first=83 second=124 amount=-3.68
kerning first=83 second=125 amount=-1.63
kerning first=84 second=49 amount=-5.15
kerning first=84 second=52 amount=-3.46
kerning first=84 second=65 amount=-1.7
kerning first=84 second=74 amount=-3.94
kerning first=84 second=91 amount=-1.6
kerning first=84 second=93 amount=-1.6
kerning first=84 second=94 amount=-2.75
kerning first=84 second=95 amount=-17.41
kerning first=84 second=97 amount=-3.84
kerning first=84 second=99 amount=-4.16
kerning first=84 second=100 amount=-4.1
kerning first=84 second=101 amount=-4.19
kerning first=84 second=102 amount=-2.75
kerning first=84 second=103 amount=-4.1
kerning first=84 second=105 amount=-3.17
kerning first=84 second=106 amount=-5.66
kerning first=84 second=109 amount=-3.55
kerning first=84 second=110 amount=-4.61
kerning first=84 second=111 amount=-3.87
kerning first=84 second=112 amount=-4.1
kerning first=84 second=113 amount=-4.1
kerning first=84 second=114 amount=-4.61
kerning first=84 second=115 amount=-4.42
kerning first=84 second=116 amount=-2.46
kerning first=84 second=117 amount=-4.61
kerning first=84 second=118 amount=-3.52
kerning first=84 second=119 amount=-1.95
kerning first=84 second=120 amount=-3.52
kerning first=84 second=121 amount=-3.42
kerning first=84 second=122 amount=-4.35
kerning first=84 second=123 amount=-3.71
kerning first=84 second=124 amount=-3.46
kerning first=84 second=126 amount=-3.78
kerning first=85 second=49 amount=-1.22
kerning first=85 second=91 amount=-2.14
kerning first=85 second=93 amount=-2.11
kerning first=85 second=95 amount=-16.9
kerning first=85 second=106 amount=-1.98
kerning first=85 second=124 amount=-4
kerning first=86 second=49 amount=-1.44
kerning first=86 second=52 amount=-0.67
kerning first=86 second=65 amount=-1.38
kerning first=86 second=74 amount=-1.09
kerning first=86 second=91 amount=-1.15
kerning first=86 second=93 amount=-1.12
kerning first=86 second=94 amount=-0.96
kerning first=86 second=95 amount=-17.86
kerning first=86 second=105 amount=-2.69
kerning first=86 second=106 amount=-2.5
kerning first=86 second=123 amount=-2.59
kerning first=86 second=124 amount=-3.01
kerning first=86 second=126 amount=-0.67
kerning first=87 second=95 amount=-18.53
kerning first=87 second=106 amount=-0.7
kerning first=87 second=124 amount=-1.89
kerning first=88 second=49 amount=-3.1
kerning first=88 second=91 amount=-1.31
kerning first=88 second=93 amount=-1.63
kerning first=88 second=94 amount=-3.39
kerning first=88 second=95 amount=-17.7
kerning first=88 second=102 amount=-1.98
kerning first=88 second=106 amount=-4.42
kerning first=88 second=116 amount=-1.06
kerning first=88 second=123 amount=-3.26
kerning first=88 second=124 amount=-3.17
kerning first=88 second=126 amount=-1.98
kerning first=89 second=49 amount=-2.11
kerning first=89 second=52 amount=-3.3
kerning first=89 second=65 amount=-1.54
kerning first=89 second=74 amount=-3.81
kerning first=89 second=91 amount=-0.9
kerning first=89 second=93 amount=-0.9
kerning first=89 second=94 amount=-2.24
kerning first=89 second=95 amount=-18.11
kerning first=89 second=97 amount=-1.44
kerning first=89 second=99 amount=-2.11
kerning first=89 second=100 amount=-2.08
kerning first=89 second=101 amount=-2.11
kerning first=89 second=102 amount=-0.83
kerning first=89 second=103 amount=-1.79
kerning first=89 second=105 amount=-2.46
kerning first=89 second=106 amount=-3.39
kerning first=89 second=111 amount=-1.79
kerning first=89 second=113 amount=-1.79
kerning first=89 second=115 amount=-1.63
kerning first=89 second=123 amount=-3.74
kerning first=89 second=124 amount=-2.75
kerning first=89 second=126 amount=-3.14
kerning first=90 second=49 amount=-1.98
kerning first=90 second=52 amount=-4.8
kerning first=90 second=91 amount=-1.82
kerning first=90 second=93 amount=-1.82
kerning first=90 second=94 amount=-2.56
kerning first=90 second=95 amount=-17.18
kerning first=90 second=102 amount=-1.22
kerning first=90 second=106 amount=-3.39
kerning first=90 second=123 amount=-3.84
kerning first=90 second=124 amount=-3.68
kerning first=90 second=126 amount=-4.29
kerning first=91 second=48 amount=-4.32
kerning first=91 second=49 amount=-8.77
kerning first=91 second=50 amount=-4.26
kerning first=91 second=51 amount=-3.9
kerning first=91 second=52 amount=-5.15
kerning first=91 second=53 amount=-4.06
kerning first=91 second=54 amount=-4.7
kerning first=91 second=55 amount=-2.18
kerning first=91 second=56 amount=-3.87
kerning first=91 second=57 amount=-3.68
kerning first=91 second=65 amount=-3.39
kerning first=91 second=66 amount=-2.11
kerning first=91 second=67 amount=-3.97
kerning first=91 second=68 amount=-1.98
kerning first=91 second=69 amount=-2.72
kerning first=91 second=70 amount=-2.56
kerning first=91 second=71 amount=-4.06
kerning first=91 second=72 amount=-2.37
kerning first=91 second=73 amount=-4.13
kerning first=91 second=74 amount=-5.63
kerning first=91 second=75 amount=-1.54
kerning first=91 second=76 amount=-2.62
kerning first=91 second=77 amount=-1.79
kerning first=91 second=78 amount=-2.46
kerning first=91 second=79 amount=-3.84
kerning first=91 second=80 amount=-2.56
kerning first=91 second=81 amount=-3.84
kerning first=91 second=82 amount=-2.37
kerning first=91 second=83 amount=-3.52
kerning first=91 second=84 amount=-1.6
kerning first=91 second=85 amount=-2.14
kerning first=91 second=86 amount=-1.15
kerning first=91 second=88 amount=-1.7
kerning first=91 second=89 amount=-0.9
kerning first=91 second=90 amount=-2.66
kerning first=91 second=91 amount=-6.43
kerning first=91 second=92 amount=-4.74
kerning first=91 second=93 amount=-6.43
kerning first=91 second=94 amount=-7.36
kerning first=91 second=97 amount=-5.54
kerning first=91 second=98 amount=-2.56
kerning first=91 second=99 amount=-5.86
kerning first=91 second=100 amount=-5.79
kerning first=91 second=101 amount=-5.89
kerning first=91 second=102 amount=-5.82
kerning first=91 second=103 amount=-3.65
kerning first=91 second=104 amount=-3.07
kerning first=91 second=105 amount=-5.82
kerning first=91 second=106 amount=-5.57
kerning first=91 second=107 amount=-2.72
kerning first=91 second=108 amount=-3.9
kerning first=91 second=109 amount=-5.28
kerning first=91 second=110 amount=-6.3
kerning first=91 second=111 amount=-5.57
kerning first=91 second=112 amount=-2.56
kerning first=91 second=113 amount=-5.79
kerning first=91 second=114 amount=-6.3
kerning first=91 second=115 amount=-6.11
kerning first=91 second=116 amount=-5.92
kerning first=91 second=117 amount=-6.3
kerning first=91 second=118 amount=-5.25
kerning first=91 second=119 amount=-3.65
kerning first=91 second=120 amount=-5.22
kerning first=91 second=121 amount=-2.78
kerning first=91 second=122 amount=-6.05
kerning first=91 second=123 amount=-7.46
kerning first=91 second=124 amount=-8.29
kerning first=91 second=125 amount=-4.22
kerning first=91 second=126 amount=-5.47
kerning first=92 second=48 amount=-3.14
kerning first=92 second=49 amount=-8.96
kerning first=92 second=50 amount=-1.18
kerning first=92 second=51 amount=-2.5
kerning first=92 second=52 amount=-2.5
kerning first=92 second=53 amount=-2.46
kerning first=92 second=54 amount=-2.94
kerning first=92 second=55 amount=-4.1
kerning first=92 second=56 amount=-2.53
kerning first=92 second=57 amount=-2.37
kerning first=92 second=66 amount=-1.15
kerning first=92 second=67 amount=-2.91
kerning first=92 second=68 amount=-1.02
kerning first=92 second=69 amount=-1.76
kerning first=92 second=70 amount=-1.6
kerning first=92 second=71 amount=-2.88
kerning first=92 second=72 amount=-1.41
kerning first=92 second=73 amount=-3.17
kerning first=92 second=74 amount=-2.78
kerning first=92 second=76 amount=-1.66
kerning first=92 second=77 amount=-0.83
kerning first=92 second=78 amount=-1.5
kerning first=92 second=79 amount=-2.78
kerning first=92 second=80 amount=-1.6
kerning first=92 second=81 amount=-2.78
kerning first=92 second=82 amount=-1.41
kerning first=92 second=83 amount=-2.5
kerning first=92 second=84 amount=-6.21
kerning first=92 second=85 amount=-2.78
kerning first=92 second=86 amount=-6.4
kerning first=92 second=87 amount=-2.66
kerning first=92 second=89 amount=-6.14
kerning first=92 second=90 amount=-0.86
kerning first=92 second=91 amount=-4.67
kerning first=92 second=92 amount=-10.11
kerning first=92 second=93 amount=-7.9
kerning first=92 second=94 amount=-7.17
kerning first=92 second=95 amount=-14.34
kerning first=92 second=97 amount=-2.3
kerning first=92 second=98 amount=-1.6
kerning first=92 second=99 amount=-3.39
kerning first=92 second=100 amount=-3.26
kerning first=92 second=101 amount=-3.46
kerning first=92 second=102 amount=-5.09
kerning first=92 second=103 amount=-1.6
kerning first=92 second=104 amount=-2.11
kerning first=92 second=105 amount=-1.63
kerning first=92 second=106 amount=-8.22
kerning first=92 second=107 amount=-1.76
kerning first=92 second=108 amount=-1.63
kerning first=92 second=109 amount=-1.06
kerning first=92 second=110 amount=-2.11
kerning first=92 second=111 amount=-3.14
kerning first=92 second=112 amount=-0.8
kerning first=92 second=113 amount=-3.42
kerning first=92 second=114 amount=-2.08
kerning first=92 second=115 amount=-3.07
kerning first=92 second=116 amount=-5.73
kerning first=92 second=117 amount=-3.1
kerning first=92 second=118 amount=-5.86
kerning first=92 second=119 amount=-3.42
kerning first=92 second=120 amount=-1.02
kerning first=92 second=121 amount=-1.02
kerning first=92 second=122 amount=-1.82
kerning first=92 second=123 amount=-5.31
kerning first=92 second=124 amount=-6.53
kerning first=92 second=125 amount=-5.15
kerning first=92 second=126 amount=-3.74
kerning first=93 second=48 amount=-2.08
kerning first=93 second=49 amount=-5.5
kerning first=93 second=50 amount=-2.14
kerning first=93 second=51 amount=-2.02
kerning first=93 second=52 amount=-1.89
kerning first=93 second=53 amount=-2.02
kerning first=93 second=54 amount=-1.95
kerning first=93 second=55 amount=-2.14
kerning first=93 second=56 amount=-2.11
kerning first=93 second=57 amount=-1.98
kerning first=93 second=66 amount=-2.08
kerning first=93 second=67 amount=-1.7
kerning first=93 second=68 amount=-1.95
kerning first=93 second=69 amount=-2.69
kerning first=93 second=70 amount=-2.53
kerning first=93 second=71 amount=-1.57
kerning first=93 second=72 amount=-2.34
kerning first=93 second=73 amount=-4.1
kerning first=93 second=74 amount=-2.37
kerning first=93 second=75 amount=-1.54
kerning first=93 second=76 amount=-2.62
kerning first=93 second=77 amount=-1.79
kerning first=93 second=78 amount=-2.46
kerning first=93 second=79 amount=-1.57
kerning first=93 second=80 amount=-2.56
kerning first=93 second=81 amount=-1.57
kerning first=93 second=82 amount=-2.34
kerning first=93 second=83 amount=-1.82
kerning first=93 second=84 amount=-1.6
kerning first=93 second=85 amount=-2.11
kerning first=93 second=86 amount=-1.12
kerning first=93 second=88 amount=-1.31
kerning first=93 second=89 amount=-0.9
kerning first=93 second=90 amount=-1.82
kerning first=93 second=91 amount=-6.43
kerning first=93 second=92 amount=-4.74
kerning first=93 second=93 amount=-6.4
kerning first=93 second=94 amount=-4.1
kerning first=93 second=97 amount=-2.27
kerning first=93 second=98 amount=-2.53
kerning first=93 second=99 amount=-2.59
kerning first=93 second=100 amount=-2.53
kerning first=93 second=101 amount=-2.62
kerning first=93 second=102 amount=-2.53
kerning first=93 second=103 amount=-2.53
kerning first=93 second=104 amount=-3.04
kerning first=93 second=105 amount=-2.56
kerning first=93 second=106 amount=-5.54
kerning first=93 second=107 amount=-2.69
kerning first=93 second=108 amount=-2.56
kerning first=93 second=109 amount=-1.98
kerning first=93 second=110 amount=-3.04
kerning first=93 second=111 amount=-2.3
kerning first=93 second=112 amount=-2.53
kerning first=93 second=113 amount=-2.53
kerning first=93 second=114 amount=-3.04
kerning first=93 second=115 amount=-2.85
kerning first=93 second=116 amount=-2.66
kerning first=93 second=117 amount=-3.04
kerning first=93 second=118 amount=-1.95
kerning first=93 second=120 amount=-1.95
kerning first=93 second=121 amount=-1.86
kerning first=93 second=122 amount=-2.78
kerning first=93 second=123 amount=-4.19
kerning first=93 second=124 amount=-8.29
kerning first=93 second=125 amount=-4.19
kerning first=93 second=126 amount=-2.21
kerning first=94 second=49 amount=-3.58
kerning first=94 second=52 amount=-3.36
kerning first=94 second=53 amount=-0.9
kerning first=94 second=55 amount=-2.62
kerning first=94 second=56 amount=-0.7
kerning first=94 second=65 amount=-2.69
kerning first=94 second=73 amount=-5.25
kerning first=94 second=74 amount=-17.06
kerning first=94 second=84 amount=-2.72
kerning first=94 second=86 amount=-0.99
kerning first=94 second=88 amount=-3.36
kerning first=94 second=89 amount=-2.34
kerning first=94 second=90 amount=-3.78
kerning first=94 second=91 amount=-4.13
kerning first=94 second=92 amount=-4.58
kerning first=94 second=93 amount=-7.36
kerning first=94 second=94 amount=-1.79
kerning first=94 second=95 amount=-14.91
kerning first=94 second=97 amount=-0.8
kerning first=94 second=99 amount=-1.25
kerning first=94 second=100 amount=-1.25
kerning first=94 second=101 amount=-1.28
kerning first=94 second=103 amount=-1.06
kerning first=94 second=104 amount=-0.74
kerning first=94 second=105 amount=-5.76
kerning first=94 second=106 amount=-3.97
kerning first=94 second=108 amount=-5.7
kerning first=94 second=110 amount=-0.74
kerning first=94 second=111 amount=-0.96
kerning first=94 second=113 amount=-1.06
kerning first=94 second=114 amount=-0.74
kerning first=94 second=115 amount=-1.02
kerning first=94 second=117 amount=-0.74
kerning first=94 second=120 amount=-1.34
kerning first=94 second=122 amount=-1.02
kerning first=94 second=123 amount=-6.11
kerning first=94 second=124 amount=-5.95
kerning first=94 second=125 amount=-5.5
kerning first=94 second=126 amount=-16.9
kerning first=95 second=48 amount=-16.93
kerning first=95 second=49 amount=-13.41
kerning first=95 second=50 amount=-16.86
kerning first=95 second=51 amount=-16.99
kerning first=95 second=52 amount=-17.12
kerning first=95 second=53 amount=-16.96
kerning first=95 second=54 amount=-17.02
kerning first=95 second=55 amount=-16.86
kerning first=95 second=56 amount=-16.9
kerning first=95 second=57 amount=-17.02
kerning first=95 second=65 amount=-18.66
kerning first=95 second=66 amount=-16.93
kerning first=95 second=67 amount=-17.31
kerning first=95 second=68 amount=-17.06
kerning first=95 second=69 amount=-16.32
kerning first=95 second=70 amount=-16.51
kerning first=95 second=71 amount=-17.41
kerning first=95 second=72 amount=-16.64
kerning first=95 second=73 amount=-14.91
kerning first=95 second=74 amount=-16.54
kerning first=95 second=75 amount=-17.54
kerning first=95 second=76 amount=-16.42
kerning first=95 second=77 amount=-17.22
kerning first=95 second=78 amount=-16.54
kerning first=95 second=79 amount=-17.44
kerning first=95 second=80 amount=-16.48
kerning first=95 second=81 amount=-4.7
kerning first=95 second=82 amount=-16.67
kerning first=95 second=83 amount=-17.18
kerning first=95 second=84 amount=-17.41
kerning first=95 second=85 amount=-16.9
kerning first=95 second=86 amount=-17.86
kerning first=95 second=87 amount=-18.53
kerning first=95 second=88 amount=-17.7
kerning first=95 second=89 amount=-18.11
kerning first=95 second=90 amount=-17.18
kerning first=95 second=92 amount=-14.34
kerning first=95 second=94 amount=-14.91
kerning first=95 second=97 amount=-16.74
kerning first=95 second=98 amount=-16.48
kerning first=95 second=99 amount=-16.42
kerning first=95 second=100 amount=-16.45
kerning first=95 second=101 amount=-16.38
kerning first=95 second=102 amount=-16.42
kerning first=95 second=104 amount=-15.97
kerning first=95 second=105 amount=-16.48
kerning first=95 second=107 amount=-16.35
kerning first=95 second=108 amount=-16.45
kerning first=95 second=109 amount=-16.99
kerning first=95 second=110 amount=-15.97
kerning first=95 second=111 amount=-16.7
kerning first=95 second=113 amount=-7.39
kerning first=95 second=114 amount=-16.03
kerning first=95 second=115 amount=-16.16
kerning first=95 second=116 amount=-16.29
kerning first=95 second=117 amount=-15.97
kerning first=95 second=118 amount=-17.02
kerning first=95 second=119 amount=-18.62
kerning first=95 second=120 amount=-17.06
kerning first=95 second=122 amount=-16.22
kerning first=95 second=123 amount=-2.62
kerning first=95 second=124 amount=-2.11
kerning first=95 second=126 amount=-16.8
kerning first=97 second=49 amount=-3.49
kerning first=97 second=55 amount=-0.93
kerning first=97 second=84 amount=-3.87
kerning first=97 second=86 amount=-1.02
kerning first=97 second=89 amount=-2.3
kerning first=97 second=91 amount=-2.3
kerning first=97 second=92 amount=-4.61
kerning first=97 second=93 amount=-5.54
kerning first=97 second=94 amount=-1.7
kerning first=97 second=95 amount=-16.74
kerning first=97 second=106 amount=-3.87
kerning first=97 second=123 amount=-1.73
kerning first=97 second=124 amount=-4.16
kerning first=97 second=125 amount=-3.68
kerning first=98 second=49 amount=-3.46
kerning first=98 second=55 amount=-2.43
kerning first=98 second=73 amount=-1.47
kerning first=98 second=84 amount=-4.13
kerning first=98 second=89 amount=-2.21
kerning first=98 second=91 amount=-2.56
kerning first=98 second=92 amount=-4.13
kerning first=98 second=93 amount=-5.79
kerning first=98 second=94 amount=-1.25
kerning first=98 second=95 amount=-16.48
kerning first=98 second=106 amount=-3.42
kerning first=98 second=124 amount=-4.42
kerning first=98 second=125 amount=-4.29
kerning first=99 second=49 amount=-2.85
kerning first=99 second=55 amount=-2.27
kerning first=99 second=73 amount=-1.34
kerning first=99 second=84 amount=-4.19
kerning first=99 second=89 amount=-1.63
kerning first=99 second=91 amount=-2.59
kerning first=99 second=92 amount=-3.68
kerning first=99 second=93 amount=-5.86
kerning first=99 second=94 amount=-0.77
kerning first=99 second=95 amount=-16.42
kerning first=99 second=106 amount=-2.94
kerning first=99 second=123 amount=-3.42
kerning first=99 second=124 amount=-4.45
kerning first=99 second=125 amount=-4.1
kerning first=100 second=49 amount=-1.6
kerning first=100 second=91 amount=-2.53
kerning first=100 second=92 amount=-0.77
kerning first=100 second=93 amount=-2.53
kerning first=100 second=95 amount=-16.45
kerning first=100 second=106 amount=-2.4
kerning first=100 second=124 amount=-4.38
kerning first=101 second=49 amount=-3.3
kerning first=101 second=55 amount=-2.46
kerning first=101 second=73 amount=-1.54
kerning first=101 second=84 amount=-4.22
kerning first=101 second=89 amount=-2.05
kerning first=101 second=91 amount=-2.62
kerning first=101 second=92 amount=-4.03
kerning first=101 second=93 amount=-5.89
kerning first=101 second=94 amount=-1.15
kerning first=101 second=95 amount=-16.38
kerning first=101 second=106 amount=-3.33
kerning first=101 second=120 amount=-0.7
kerning first=101 second=124 amount=-4.48
kerning first=101 second=125 amount=-4.26
kerning first=102 second=49 amount=-6.46
kerning first=102 second=52 amount=-0.7
kerning first=102 second=74 amount=-4.61
kerning first=102 second=91 amount=-2.56
kerning first=102 second=92 amount=-0.8
kerning first=102 second=93 amount=-2.53
kerning first=102 second=95 amount=-16.42
kerning first=102 second=105 amount=-4.1
kerning first=102 second=106 amount=-2.43
kerning first=102 second=122 amount=-4.99
kerning first=102 second=123 amount=-4.45
kerning first=102 second=124 amount=-4.42
kerning first=102 second=126 amount=-4.42
kerning first=103 second=49 amount=-1.6
kerning first=103 second=55 amount=-1.18
kerning first=103 second=84 amount=-4.13
kerning first=103 second=91 amount=-2.53
kerning first=103 second=92 amount=-2.27
kerning first=103 second=93 amount=-3.33
kerning first=103 second=106 amount=-2.4
kerning first=103 second=124 amount=-4.38
kerning first=103 second=125 amount=-1.12
kerning first=104 second=49 amount=-2.82
kerning first=104 second=55 amount=-1.7
kerning first=104 second=73 amount=-0.74
kerning first=104 second=84 amount=-4.64
kerning first=104 second=89 amount=-1.63
kerning first=104 second=91 amount=-3.07
kerning first=104 second=92 amount=-3.87
kerning first=104 second=93 amount=-6.3
kerning first=104 second=94 amount=-0.93
kerning first=104 second=95 amount=-15.97
kerning first=104 second=106 amount=-3.1
kerning first=104 second=123 amount=-0.83
kerning first=104 second=124 amount=-4.93
kerning first=104 second=125 amount=-4.45
kerning first=105 second=49 amount=-6.59
kerning first=105 second=52 amount=-3.55
kerning first=105 second=55 amount=-1.18
kerning first=105 second=84 amount=-3.2
kerning first=105 second=86 amount=-2.72
kerning first=105 second=89 amount=-2.5
kerning first=105 second=91 amount=-2.59
kerning first=105 second=92 amount=-6.24
kerning first=105 second=93 amount=-5.82
kerning first=105 second=94 amount=-5.79
kerning first=105 second=95 amount=-16.48
kerning first=105 second=102 amount=-3.58
kerning first=105 second=106 amount=-6.62
kerning first=105 second=116 amount=-3.71
kerning first=105 second=118 amount=-3.3
kerning first=105 second=121 amount=-3.17
kerning first=105 second=123 amount=-4.58
kerning first=105 second=124 amount=-4.45
kerning first=105 second=125 amount=-3.97
kerning first=105 second=126 amount=-3.9
kerning first=106 second=48 amount=-1.22
kerning first=106 second=49 amount=-4.64
kerning first=106 second=50 amount=-1.28
kerning first=106 second=51 amount=-1.15
kerning first=106 second=52 amount=-1.02
kerning first=106 second=53 amount=-1.15
kerning first=106 second=54 amount=-1.12
kerning first=106 second=55 amount=-1.31
kerning first=106 second=56 amount=-1.25
kerning first=106 second=57 amount=-1.12
kerning first=106 second=66 amount=-1.22
kerning first=106 second=67 amount=-0.83
kerning first=106 second=68 amount=-1.12
kerning first=106 second=69 amount=-1.86
kerning first=106 second=70 amount=-1.66
kerning first=106 second=71 amount=-0.7
kerning first=106 second=72 amount=-1.5
kerning first=106 second=73 amount=-3.23
kerning first=106 second=74 amount=-1.54
kerning first=106 second=75 amount=-0.67
kerning first=106 second=76 amount=-1.76
kerning first=106 second=77 amount=-0.93
kerning first=106 second=78 amount=-1.6
kerning first=106 second=79 amount=-0.7
kerning first=106 second=80 amount=-1.7
kerning first=106 second=81 amount=-0.7
kerning first=106 second=82 amount=-1.47
kerning first=106 second=83 amount=-0.96
kerning first=106 second=84 amount=-0.74
kerning first=106 second=85 amount=-1.25
kerning first=106 second=90 amount=-0.96
kerning first=106 second=91 amount=-5.57
kerning first=106 second=92 amount=-3.81
kerning first=106 second=93 amount=-5.54
kerning first=106 second=94 amount=-3.23
kerning first=106 second=97 amount=-1.41
kerning first=106 second=98 amount=-1.7
kerning first=106 second=99 amount=-1.73
kerning first=106 second=100 amount=-1.66
kerning first=106 second=101 amount=-1.76
kerning first=106 second=102 amount=-1.7
kerning first=106 second=103 amount=-1.66
kerning first=106 second=104 amount=-2.18
kerning first=106 second=105 amount=-1.7
kerning first=106 second=106 amount=-5.02
kerning first=106 second=107 amount=-1.82
kerning first=106 second=108 amount=-1.73
kerning first=106 second=109 amount=-1.15
kerning first=106 second=110 amount=-2.18
kerning first=106 second=111 amount=-1.44
kerning first=106 second=112 amount=-1.7
kerning first=106 second=113 amount=-1.66
kerning first=106 second=114 amount=-2.18
kerning first=106 second=115 amount=-1.98
kerning first=106 second=116 amount=-1.82
kerning first=106 second=117 amount=-2.18
kerning first=106 second=118 amount=-1.18
kerning first=106 second=120 amount=-1.09
kerning first=106 second=121 amount=-1.18
kerning first=106 second=122 amount=-1.92
kerning first=106 second=123 amount=-3.36
kerning first=106 second=124 amount=-7.42
kerning first=106 second=125 amount=-3.36
kerning first=106 second=126 amount=-1.34
kerning first=107 second=49 amount=-1.79
kerning first=107 second=52 amount=-1.31
kerning first=107 second=55 amount=-1.47
kerning first=107 second=74 amount=-0.8
kerning first=107 second=84 amount=-4.29
kerning first=107 second=91 amount=-2.72
kerning first=107 second=92 amount=-2.56
kerning first=107 second=93 amount=-5.95
kerning first=107 second=94 amount=-1.82
kerning first=107 second=95 amount=-16.35
kerning first=107 second=99 amount=-1.7
kerning first=107 second=100 amount=-1.47
kerning first=107 second=101 amount=-1.73
kerning first=107 second=102 amount=-0.96
kerning first=107 second=103 amount=-1.28
kerning first=107 second=106 amount=-2.56
kerning first=107 second=111 amount=-1.44
kerning first=107 second=113 amount=-1.28
kerning first=107 second=115 amount=-1.12
kerning first=107 second=123 amount=-4.64
kerning first=107 second=124 amount=-4.54
kerning first=107 second=125 amount=-4.1
kerning first=107 second=126 amount=-3.33
kerning first=108 second=49 amount=-6.59
kerning first=108 second=52 amount=-3.52
kerning first=108 second=55 amount=-1.22
kerning first=108 second=84 amount=-3.23
kerning first=108 second=86 amount=-2.75
kerning first=108 second=89 amount=-2.53
kerning first=108 second=91 amount=-2.59
kerning first=108 second=92 amount=-6.3
kerning first=108 second=93 amount=-5.82
kerning first=108 second=94 amount=-5.73
kerning first=108 second=95 amount=-16.45
kerning first=108 second=102 amount=-3.62
kerning first=108 second=106 amount=-6.62
kerning first=108 second=116 amount=-3.71
kerning first=108 second=118 amount=-3.33
kerning first=108 second=121 amount=-3.17
kerning first=108 second=123 amount=-4.61
kerning first=108 second=124 amount=-4.45
kerning first=108 second=125 amount=-4
kerning first=108 second=126 amount=-3.84
kerning first=109 second=49 amount=-1.38
kerning first=109 second=55 amount=-0.64
kerning first=109 second=84 amount=-3.58
kerning first=109 second=91 amount=-2.02
kerning first=109 second=92 amount=-2.53
kerning first=109 second=93 amount=-5.25
kerning first=109 second=95 amount=-16.99
kerning first=109 second=106 amount=-1.95
kerning first=109 second=124 amount=-3.87
kerning first=109 second=125 amount=-3.42
kerning first=110 second=49 amount=-2.69
kerning first=110 second=55 amount=-1.7
kerning first=110 second=73 amount=-0.74
kerning first=110 second=84 amount=-4.64
kerning first=110 second=89 amount=-1.5
kerning first=110 second=91 amount=-3.07
kerning first=110 second=92 amount=-3.81
kerning first=110 second=93 amount=-6.3
kerning first=110 second=94 amount=-0.9
kerning first=110 second=95 amount=-15.97
kerning first=110 second=106 amount=-3.07
kerning first=110 second=123 amount=-0.83
kerning first=110 second=124 amount=-4.93
kerning first=110 second=125 amount=-4.45
kerning first=111 second=49 amount=-3.14
kerning first=111 second=55 amount=-2.27
kerning first=111 second=73 amount=-1.41
kerning first=111 second=84 amount=-3.9
kerning first=111 second=89 amount=-1.89
kerning first=111 second=91 amount=-2.3
kerning first=111 second=92 amount=-3.81
kerning first=111 second=93 amount=-5.57
kerning first=111 second=94 amount=-0.96
kerning first=111 second=95 amount=-16.7
kerning first=111 second=106 amount=-3.14
kerning first=111 second=124 amount=-4.16
kerning first=111 second=125 amount=-4
kerning first=112 second=49 amount=-3.1
kerning first=112 second=55 amount=-2.59
kerning first=112 second=73 amount=-1.79
kerning first=112 second=84 amount=-4.13
kerning first=112 second=89 amount=-1.92
kerning first=112 second=91 amount=-2.56
kerning first=112 second=92 amount=-3.97
kerning first=112 second=93 amount=-5.79
kerning first=112 second=94 amount=-1.06
kerning first=112 second=95 amount=-7.39
kerning first=112 second=106 amount=-3.23
kerning first=112 second=120 amount=-0.86
kerning first=112 second=124 amount=-4.42
kerning first=112 second=125 amount=-4.19
kerning first=113 second=49 amount=-1.6
kerning first=113 second=55 amount=-1.15
kerning first=113 second=84 amount=-4.13
kerning first=113 second=91 amount=-2.53
kerning first=113 second=92 amount=-2.27
kerning first=113 second=93 amount=-2.53
kerning first=113 second=106 amount=-1.66
kerning first=113 second=124 amount=-4.38
kerning first=114 second=49 amount=-2.78
kerning first=114 second=52 amount=-0.86
kerning first=114 second=55 amount=-5.38
kerning first=114 second=65 amount=-0.83
kerning first=114 second=73 amount=-4.61
kerning first=114 second=74 amount=-9.09
kerning first=114 second=84 amount=-4.64
kerning first=114 second=88 amount=-2.59
kerning first=114 second=89 amount=-1.6
kerning first=114 second=90 amount=-4.96
kerning first=114 second=91 amount=-3.04
kerning first=114 second=92 amount=-3.87
kerning first=114 second=93 amount=-6.27
kerning first=114 second=94 amount=-0.93
kerning first=114 second=95 amount=-16.03
kerning first=114 second=105 amount=-4.67
kerning first=114 second=106 amount=-3.1
kerning first=114 second=108 amount=-4.7
kerning first=114 second=123 amount=-4.8
kerning first=114 second=124 amount=-4.9
kerning first=114 second=125 amount=-4.48
kerning first=114 second=126 amount=-2.78
kerning first=115 second=49 amount=-3.07
kerning first=115 second=55 amount=-2.24
kerning first=115 second=73 amount=-1.12
kerning first=115 second=84 amount=-4.45
kerning first=115 second=89 amount=-1.92
kerning first=115 second=91 amount=-2.88
kerning first=115 second=92 amount=-4.1
kerning first=115 second=93 amount=-6.11
kerning first=115 second=94 amount=-1.15
kerning first=115 second=95 amount=-16.16
kerning first=115 second=106 amount=-3.33
kerning first=115 second=123 amount=-0.96
kerning first=115 second=124 amount=-4.74
kerning first=115 second=125 amount=-4.32
kerning first=116 second=49 amount=-1.76
kerning first=116 second=52 amount=-2.08
kerning first=116 second=55 amount=-1.31
kerning first=116 second=84 amount=-3.97
kerning first=116 second=91 amount=-2.69
kerning first=116 second=92 amount=-2.66
kerning first=116 second=93 amount=-5.92
kerning first=116 second=95 amount=-16.29
kerning first=116 second=106 amount=-2.53
kerning first=116 second=123 amount=-4.7
kerning first=116 second=124 amount=-4.54
kerning first=116 second=125 amount=-4.06
kerning first=116 second=126 amount=-4.58
kerning first=117 second=49 amount=-2.14
kerning first=117 second=55 amount=-1.7
kerning first=117 second=73 amount=-0.74
kerning first=117 second=84 amount=-4.64
kerning first=117 second=91 amount=-3.07
kerning first=117 second=92 amount=-2.78
kerning first=117 second=93 amount=-6.3
kerning first=117 second=94 amount=-0.74
kerning first=117 second=95 amount=-15.97
kerning first=117 second=106 amount=-2.91
kerning first=117 second=123 amount=-0.83
kerning first=117 second=124 amount=-4.93
kerning first=117 second=125 amount=-4.45
kerning first=118 second=49 amount=-1.06
kerning first=118 second=55 amount=-5.66
kerning first=118 second=65 amount=-1.57
kerning first=118 second=73 amount=-3.55
kerning first=118 second=74 amount=-0.9
kerning first=118 second=84 amount=-3.55
kerning first=118 second=90 amount=-2.43
kerning first=118 second=91 amount=-1.98
kerning first=118 second=92 amount=-1.73
kerning first=118 second=93 amount=-5.22
kerning first=118 second=95 amount=-17.02
kerning first=118 second=105 amount=-3.23
kerning first=118 second=106 amount=-1.89
kerning first=118 second=108 amount=-3.23
kerning first=118 second=123 amount=-2.34
kerning first=118 second=124 amount=-3.84
kerning first=118 second=125 amount=-3.36
kerning first=119 second=55 amount=-2.78
kerning first=119 second=73 amount=-1.5
kerning first=119 second=84 amount=-1.98
kerning first=119 second=93 amount=-3.65
kerning first=119 second=95 amount=-18.62
kerning first=119 second=124 amount=-2.27
kerning first=119 second=125 amount=-1.79
kerning first=120 second=49 amount=-1.38
kerning first=120 second=52 amount=-0.83
kerning first=120 second=84 amount=-3.55
kerning first=120 second=91 amount=-1.98
kerning first=120 second=92 amount=-2.05
kerning first=120 second=93 amount=-5.22
kerning first=120 second=94 amount=-1.41
kerning first=120 second=95 amount=-17.06
kerning first=120 second=99 amount=-0.86
kerning first=120 second=101 amount=-0.9
kerning first=120 second=103 amount=-0.9
kerning first=120 second=106 amount=-2.27
kerning first=120 second=113 amount=-0.9
kerning first=120 second=123 amount=-3.97
kerning first=120 second=124 amount=-3.81
kerning first=120 second=125 amount=-3.36
kerning first=120 second=126 amount=-2.94
kerning first=121 second=49 amount=-0.96
kerning first=121 second=55 amount=-5.6
kerning first=121 second=65 amount=-1.47
kerning first=121 second=73 amount=-3.46
kerning first=121 second=74 amount=-0.83
kerning first=121 second=84 amount=-3.46
kerning first=121 second=90 amount=-2.34
kerning first=121 second=91 amount=-1.89
kerning first=121 second=92 amount=-1.47
kerning first=121 second=93 amount=-5.12
kerning first=121 second=95 amount=-3.1
kerning first=121 second=105 amount=-3.17
kerning first=121 second=106 amount=-1.89
kerning first=121 second=108 amount=-3.17
kerning first=121 second=123 amount=-2.3
kerning first=121 second=124 amount=-3.74
kerning first=121 second=125 amount=-3.26
kerning first=122 second=49 amount=-2.3
kerning first=122 second=52 amount=-3.14
kerning first=122 second=55 amount=-1.41
kerning first=122 second=84 amount=-4.38
kerning first=122 second=91 amount=-2.78
kerning first=122 second=92 amount=-2.94
kerning first=122 second=93 amount=-6.02
kerning first=122 second=94 amount=-0.99
kerning first=122 second=95 amount=-16.22
kerning first=122 second=106 amount=-3.07
kerning first=122 second=123 amount=-4.8
kerning first=122 second=124 amount=-4.64
kerning first=122 second=125 amount=-4.19
kerning first=122 second=126 amount=-2.85
kerning first=123 second=48 amount=-2.5
kerning first=123 second=49 amount=-6.85
kerning first=123 second=50 amount=-2.43
kerning first=123 second=51 amount=-2.05
kerning first=123 second=52 amount=-3.36
kerning first=123 second=53 amount=-1.92
kerning first=123 second=54 amount=-2.91
kerning first=123 second=56 amount=-2.05
kerning first=123 second=57 amount=-1.86
kerning first=123 second=65 amount=-1.5
kerning first=123 second=67 amount=-2.11
kerning first=123 second=71 amount=-2.21
kerning first=123 second=73 amount=-1.89
kerning first=123 second=74 amount=-3.94
kerning first=123 second=79 amount=-1.98
kerning first=123 second=81 amount=-1.98
kerning first=123 second=83 amount=-1.63
kerning first=123 second=91 amount=-4.22
kerning first=123 second=92 amount=-2.46
kerning first=123 second=93 amount=-4.19
kerning first=123 second=94 amount=-5.47
kerning first=123 second=97 amount=-3.68
kerning first=123 second=99 amount=-4.29
kerning first=123 second=100 amount=-4.22
kerning first=123 second=101 amount=-4.32
kerning first=123 second=102 amount=-3.94
kerning first=123 second=103 amount=-1.41
kerning first=123 second=104 amount=-0.83
kerning first=123 second=105 amount=-3.94
kerning first=123 second=106 amount=-3.36
kerning first=123 second=108 amount=-1.66
kerning first=123 second=109 amount=-3.36
kerning first=123 second=110 amount=-4.42
kerning first=123 second=111 amount=-4
kerning first=123 second=113 amount=-4.16
kerning first=123 second=114 amount=-4.42
kerning first=123 second=115 amount=-4.29
kerning first=123 second=116 amount=-4.06
kerning first=123 second=117 amount=-4.42
kerning first=123 second=118 amount=-3.33
kerning first=123 second=119 amount=-1.76
kerning first=123 second=120 amount=-3.33
kerning first=123 second=122 amount=-4.16
kerning first=123 second=123 amount=-6.34
kerning first=123 second=124 amount=-6.08
kerning first=123 second=125 amount=-1.98
kerning first=123 second=126 amount=-4.32
kerning first=124 second=48 amount=-3.94
kerning first=124 second=49 amount=-7.36
kerning first=124 second=50 amount=-4
kerning first=124 second=51 amount=-3.87
kerning first=124 second=52 amount=-3.74
kerning first=124 second=53 amount=-3.9
kerning first=124 second=54 amount=-3.84
kerning first=124 second=55 amount=-4.03
kerning first=124 second=56 amount=-4
kerning first=124 second=57 amount=-3.84
kerning first=124 second=65 amount=-2.02
kerning first=124 second=66 amount=-3.97
kerning first=124 second=67 amount=-3.58
kerning first=124 second=68 amount=-3.84
kerning first=124 second=69 amount=-4.58
kerning first=124 second=70 amount=-4.42
kerning first=124 second=71 amount=-3.42
kerning first=124 second=72 amount=-4.22
kerning first=124 second=73 amount=-5.95
kerning first=124 second=74 amount=-4.26
kerning first=124 second=75 amount=-3.39
kerning first=124 second=76 amount=-4.48
kerning first=124 second=77 amount=-3.65
kerning first=124 second=78 amount=-4.32
kerning first=124 second=79 amount=-3.46
kerning first=124 second=80 amount=-4.42
kerning first=124 second=81 amount=-3.46
kerning first=124 second=82 amount=-4.22
kerning first=124 second=83 amount=-3.68
kerning first=124 second=84 amount=-3.46
kerning first=124 second=85 amount=-4
kerning first=124 second=86 amount=-3.01
kerning first=124 second=87 amount=-1.89
kerning first=124 second=88 amount=-3.17
kerning first=124 second=89 amount=-2.75
kerning first=124 second=90 amount=-3.68
kerning first=124 second=91 amount=-8.29
kerning first=124 second=92 amount=-6.53
kerning first=124 second=93 amount=-8.29
kerning first=124 second=94 amount=-5.95
kerning first=124 second=95 amount=-2.11
kerning first=124 second=97 amount=-4.16
kerning first=124 second=98 amount=-4.42
kerning first=124 second=99 amount=-4.45
kerning first=124 second=100 amount=-4.38
kerning first=124 second=101 amount=-4.48
kerning first=124 second=102 amount=-4.42
kerning first=124 second=103 amount=-4.38
kerning first=124 second=104 amount=-4.93
kerning first=124 second=105 amount=-4.45
kerning first=124 second=106 amount=-7.42
kerning first=124 second=107 amount=-4.54
kerning first=124 second=108 amount=-4.45
kerning first=124 second=109 amount=-3.87
kerning first=124 second=110 amount=-4.93
kerning first=124 second=111 amount=-4.16
kerning first=124 second=112 amount=-4.42
kerning first=124 second=113 amount=-4.38
kerning first=124 second=114 amount=-4.9
kerning first=124 second=115 amount=-4.74
kerning first=124 second=116 amount=-4.54
kerning first=124 second=117 amount=-4.93
kerning first=124 second=118 amount=-3.84
kerning first=124 second=119 amount=-2.27
kerning first=124 second=120 amount=-3.81
kerning first=124 second=121 amount=-3.74
kerning first=124 second=122 amount=-4.64
kerning first=124 second=123 amount=-6.08
kerning first=124 second=124 amount=-10.14
kerning first=124 second=125 amount=-6.08
kerning first=124 second=126 amount=-4.1
kerning first=125 second=49 amount=-7.49
kerning first=125 second=50 amount=-2.78
kerning first=125 second=51 amount=-1.86
kerning first=125 second=53 amount=-2.85
kerning first=125 second=55 amount=-4.19
kerning first=125 second=57 amount=-1.34
kerning first=125 second=73 amount=-5.79
kerning first=125 second=84 amount=-3.68
kerning first=125 second=86 amount=-2.69
kerning first=125 second=88 amount=-3.3
kerning first=125 second=89 amount=-3.74
kerning first=125 second=90 amount=-2.91
kerning first=125 second=91 amount=-4.22
kerning first=125 second=92 amount=-6.14
kerning first=125 second=93 amount=-7.46
kerning first=125 second=94 amount=-6.08
kerning first=125 second=95 amount=-2.59
kerning first=125 second=102 amount=-4.42
kerning first=125 second=104 amount=-0.83
kerning first=125 second=105 amount=-4.54
kerning first=125 second=106 amount=-7.9
kerning first=125 second=108 amount=-4.58
kerning first=125 second=110 amount=-0.83
kerning first=125 second=114 amount=-0.83
kerning first=125 second=115 amount=-1.98
kerning first=125 second=116 amount=-4.67
kerning first=125 second=117 amount=-0.83
kerning first=125 second=118 amount=-2.4
kerning first=125 second=120 amount=-3.94
kerning first=125 second=121 amount=-2.3
kerning first=125 second=122 amount=-4.22
kerning first=125 second=123 amount=-1.98
kerning first=125 second=124 amount=-6.08
kerning first=125 second=125 amount=-6.34
kerning first=126 second=49 amount=-6.24
kerning first=126 second=50 amount=-3.65
kerning first=126 second=51 amount=-3.62
kerning first=126 second=55 amount=-3.68
kerning first=126 second=73 amount=-3.81
kerning first=126 second=84 amount=-3.81
kerning first=126 second=88 amount=-2.85
kerning first=126 second=89 amount=-2.5
kerning first=126 second=90 amount=-2.75
kerning first=126 second=91 amount=-2.24
kerning first=126 second=92 amount=-3.81
kerning first=126 second=93 amount=-5.47
kerning first=126 second=94 amount=-16.9
kerning first=126 second=95 amount=-16.8
kerning first=126 second=102 amount=-3.23
kerning first=126 second=105 amount=-3.87
kerning first=126 second=106 amount=-6.27
kerning first=126 second=108 amount=-3.87
kerning first=126 second=116 amount=-3.1
kerning first=126 second=120 amount=-1.89
kerning first=126 second=122 amount=-4.16
kerning first=126 second=124 amount=-4.1
kerning first=126 second=125 amount=-3.84