^C:\USERS\CHRISTIAN DE ORLEANS\DESKTOP\CLEAN TGA2D\SOURCE\COMMONUTILITIES\INPUTMANAGER.CPP|C:\USERS\CHRISTIAN DE ORLEANS\DESKTOP\CLEAN TGA2D\SOURCE\COMMONUTILITIES\TIMER.CPP
C:\USERS\CHRISTIAN DE ORLEANS\DESKTOP\CLEAN TGA2D\SOURCE\COMMONUTILITIES\X64\RELEASE\COMMONUTILITIES.PDB
C:\USERS\CHRISTIAN DE ORLEANS\DESKTOP\CLEAN TGA2D\SOURCE\COMMONUTILITIES\X64\RELEASE\TIMER.OBJ
C:\USERS\CHRISTIAN DE ORLEANS\DESKTOP\CLEAN TGA2D\SOURCE\COMMONUTILITIES\X64\RELEASE\INPUTMANAGER.OBJ
^C:\USERS\CHRISTIAN DE ORLEANS\DESKTOP\CLEAN TGA2D\SOURCE\COMMONUTILITIES\INPUTMANAGER.CPP
C:\USERS\CHRISTIAN DE ORLEANS\DESKTOP\CLEAN TGA2D\SOURCE\COMMONUTILITIES\X64\RELEASE\COMMONUTILITIES.PDB
^C:\USERS\CHRISTIAN DE ORLEANS\DESKTOP\CLEAN TGA2D\SOURCE\COMMONUTILITIES\TIMER.CPP
C:\USERS\CHRISTIAN DE ORLEANS\DESKTOP\CLEAN TGA2D\SOURCE\COMMONUTILITIES\X64\RELEASE\COMMONUTILITIES.PDB
