{ "height":17,
 "layers":[
        {
         "draworder":"topdown",
         "name":"GFX below Stuff on the ground and shit",
         "objects":[],
         "opacity":1,
         "type":"objectgroup",
         "visible":false,
         "x":0,
         "y":0
        }, 
        {
         "draworder":"topdown",
         "name":"GFX aboveLike birds or planes or whatever",
         "objects":[],
         "opacity":1,
         "type":"objectgroup",
         "visible":false,
         "x":0,
         "y":0
        }, 
        {
         "draworder":"topdown",
         "name":"GFX Cool props",
         "objects":[],
         "opacity":1,
         "type":"objectgroup",
         "visible":false,
         "x":0,
         "y":0
        }, 
        {
         "color":"#280000",
         "draworder":"topdown",
         "name":"Walls",
         "objects":[
                {
                 "height":278,
                 "id":26,
                 "name":"",
                 "rotation":0,
                 "type":"",
                 "visible":true,
                 "width":554,
                 "x":921.575757575758,
                 "y":412.606060606061
                }, 
                {
                 "height":178,
                 "id":27,
                 "name":"",
                 "rotation":0,
                 "type":"",
                 "visible":true,
                 "width":258,
                 "x":526,
                 "y":36
                }, 
                {
                 "height":240,
                 "id":28,
                 "name":"",
                 "rotation":0,
                 "type":"",
                 "visible":true,
                 "width":354,
                 "x":1024,
                 "y":818
                }],
         "opacity":1,
         "type":"objectgroup",
         "visible":true,
         "x":0,
         "y":0
        }, 
        {
         "color":"#006400",
         "draworder":"topdown",
         "name":"Pits",
         "objects":[
                {
                 "height":376,
                 "id":29,
                 "name":"",
                 "rotation":0,
                 "type":"",
                 "visible":true,
                 "width":356,
                 "x":1513.63636363636,
                 "y":38.4242424242424
                }],
         "opacity":1,
         "type":"objectgroup",
         "visible":true,
         "x":0,
         "y":0
        }, 
        {
         "draworder":"topdown",
         "name":"StaticObjects",
         "objects":[
                {
                 "gid":3,
                 "height":64,
                 "id":65,
                 "name":"chest",
                 "properties":
                    {
                     "lootID":6
                    },
                 "propertytypes":
                    {
                     "lootID":"int"
                    },
                 "rotation":0,
                 "type":"",
                 "visible":true,
                 "width":64,
                 "x":529.333333333333,
                 "y":522.666666666666
                }, 
                {
                 "height":64,
                 "id":66,
                 "name":"crate",
                 "properties":
                    {
                     "path":"hub_Tutorial"
                    },
                 "propertytypes":
                    {
                     "path":"string"
                    },
                 "rotation":0,
                 "type":"",
                 "visible":true,
                 "width":64,
                 "x":640,
                 "y":384
                }, 
                {
                 "height":128,
                 "id":68,
                 "name":"vase",
                 "properties":
                    {
                     "path":"hub_Tutorial"
                    },
                 "propertytypes":
                    {
                     "path":"string"
                    },
                 "rotation":0,
                 "type":"",
                 "visible":true,
                 "width":64,
                 "x":768,
                 "y":512
                }, 
                {
                 "height":64,
                 "id":72,
                 "name":"crate",
                 "properties":
                    {
                     "path":"hub_Tutorial"
                    },
                 "propertytypes":
                    {
                     "path":"string"
                    },
                 "rotation":0,
                 "type":"",
                 "visible":true,
                 "width":64,
                 "x":704,
                 "y":384
                }, 
                {
                 "height":64,
                 "id":73,
                 "name":"crate",
                 "properties":
                    {
                     "path":"hub_Tutorial"
                    },
                 "propertytypes":
                    {
                     "path":"string"
                    },
                 "rotation":0,
                 "type":"",
                 "visible":true,
                 "width":64,
                 "x":704,
                 "y":512
                }, 
                {
                 "height":64,
                 "id":74,
                 "name":"crate",
                 "properties":
                    {
                     "path":"hub_Tutorial"
                    },
                 "propertytypes":
                    {
                     "path":"string"
                    },
                 "rotation":0,
                 "type":"",
                 "visible":true,
                 "width":64,
                 "x":640,
                 "y":512
                }],
         "opacity":1,
         "type":"objectgroup",
         "visible":true,
         "x":0,
         "y":0
        }, 
        {
         "draworder":"topdown",
         "name":"Enemies",
         "objects":[
                {
                 "ellipse":true,
                 "height":32,
                 "id":61,
                 "name":"2",
                 "properties":
                    {
                     "unitID":1
                    },
                 "propertytypes":
                    {
                     "unitID":"int"
                    },
                 "rotation":0,
                 "type":"",
                 "visible":true,
                 "width":32,
                 "x":850.666666666667,
                 "y":17.3333333333338
                }, 
                {
                 "ellipse":true,
                 "height":32,
                 "id":62,
                 "name":"1",
                 "properties":
                    {
                     "unitID":0
                    },
                 "propertytypes":
                    {
                     "unitID":"int"
                    },
                 "rotation":0,
                 "type":"",
                 "visible":true,
                 "width":32,
                 "x":1728,
                 "y":832
                }, 
                {
                 "ellipse":true,
                 "height":60.6060606060606,
                 "id":63,
                 "name":"3",
                 "properties":
                    {
                     "unitID":2
                    },
                 "propertytypes":
                    {
                     "unitID":"int"
                    },
                 "rotation":0,
                 "type":"",
                 "visible":true,
                 "width":66.6666666666667,
                 "x":1664,
                 "y":576
                }, 
                {
                 "ellipse":true,
                 "height":60.6060606060605,
                 "id":64,
                 "name":"4",
                 "properties":
                    {
                     "unitID":3
                    },
                 "propertytypes":
                    {
                     "unitID":"int"
                    },
                 "rotation":0,
                 "type":"",
                 "visible":true,
                 "width":60.6060606060605,
                 "x":1472,
                 "y":704
                }],
         "opacity":1,
         "type":"objectgroup",
         "visible":true,
         "x":0,
         "y":0
        }],
 "nextobjectid":75,
 "orientation":"orthogonal",
 "renderorder":"right-down",
 "tileheight":64,
 "tilesets":[
        {
         "columns":0,
         "firstgid":1,
         "grid":
            {
             "height":1,
             "orientation":"orthogonal",
             "width":1
            },
         "margin":0,
         "name":"aswda",
         "spacing":0,
         "tilecount":3,
         "tileheight":256,
         "tiles":
            {
             "0":
                {
                 "image":"..\/..\/Sprites\/levels\/hub_Tutorial\/door_Open.dds",
                 "imageheight":256,
                 "imagewidth":256,
                 "objectgroup":
                    {
                     "draworder":"index",
                     "name":"",
                     "objects":[
                            {
                             "height":111,
                             "id":1,
                             "name":"",
                             "rotation":0,
                             "type":"",
                             "visible":true,
                             "width":103,
                             "x":78,
                             "y":143
                            }, 
                            {
                             "height":111,
                             "id":2,
                             "name":"",
                             "rotation":0,
                             "type":"",
                             "visible":true,
                             "width":103,
                             "x":78,
                             "y":143
                            }],
                     "opacity":1,
                     "type":"objectgroup",
                     "visible":true,
                     "x":0,
                     "y":0
                    }
                },
             "1":
                {
                 "image":"..\/..\/Sprites\/levels\/hub_Tutorial\/lever.dds",
                 "imageheight":128,
                 "imagewidth":128,
                 "objectgroup":
                    {
                     "draworder":"index",
                     "name":"",
                     "objects":[
                            {
                             "height":46,
                             "id":1,
                             "name":"",
                             "rotation":0,
                             "type":"",
                             "visible":true,
                             "width":64,
                             "x":28,
                             "y":81
                            }],
                     "opacity":1,
                     "type":"objectgroup",
                     "visible":true,
                     "x":0,
                     "y":0
                    }
                },
             "2":
                {
                 "image":"..\/..\/Sprites\/levels\/hub_Tutorial\/chest.dds",
                 "imageheight":64,
                 "imagewidth":64,
                 "objectgroup":
                    {
                     "draworder":"index",
                     "name":"",
                     "objects":[
                            {
                             "height":49,
                             "id":1,
                             "name":"",
                             "rotation":0,
                             "type":"",
                             "visible":true,
                             "width":56,
                             "x":6,
                             "y":14
                            }],
                     "opacity":1,
                     "type":"objectgroup",
                     "visible":true,
                     "x":0,
                     "y":0
                    }
                }
            },
         "tilewidth":256
        }],
 "tilewidth":64,
 "type":"map",
 "version":"1.0.0",
 "width":30
}