valid[18:15:48]Game going to initialise!
[18:15:48]Starting Game Init...
valid[18:15:49]Created viewport at: 1920 x 1080
valid[18:15:49]Created viewport at: 1920 x 1080
valid[18:15:49]Created viewport at: 1920 x 1080
valid[18:15:49]Created viewport at: 960 x 540
valid[18:15:49]Created viewport at: 480 x 270
valid[18:15:49]Created viewport at: 480 x 270
valid[18:15:49]Created viewport at: 1920 x 1080
valid[18:15:49]Created viewport at: 1920 x 1080
