{
    "myDuration": 0.05000000074505806,
    "myIsLoopable": false,
    "mySpawnRate": 200.0,
    "myLifetime": 0.15000000596046449,
    "myAcceleration": {
        "myX": 0.0,
        "myY": 0.0,
        "myZ": 0.0
    },
    "myStartVelocity": {
        "myX": 0.0,
        "myY": 0.0,
        "myZ": 0.0
    },
    "myStartRotation": {
        "myX": 3.1415927410125734,
        "myY": 0.0
    },
    "myRotationVelocity": {
        "myX": 0.11519169807434082,
        "myY": 0.24609142541885377
    },
    "myGravityModifier": 0.0,
    "myStartColor": {
        "myR": 0.0,
        "myG": 0.9333333969116211,
        "myB": 1.0,
        "myA": 1.0
    },
    "myEndColor": {
        "myR": 0.0,
        "myG": 1.0,
        "myB": 0.9166667461395264,
        "myA": 0.08627451211214066
    },
    "myStartSize": {
        "myX": 0.10000000149011612,
        "myY": 0.10000000149011612
    },
    "myEndSize": {
        "myX": 0.4000000059604645,
        "myY": 0.4000000059604645
    },
    "myBlendState": 1,
    "myTexture": "Assets\\Particles\\Sprites\\bulletHitParticle.dds",
    "myShapeData": {
        "myShapeType": 2
    }
}