{
    "myDuration": 0.20000000298023225,
    "myIsLoopable": false,
    "mySpawnRate": 200.0,
    "myLifetime": 0.5,
    "myAcceleration": {
        "myX": 0.0,
        "myY": 1.0,
        "myZ": 0.0
    },
    "myStartVelocity": {
        "myX": 10.5,
        "myY": 0.0,
        "myZ": 0.0
    },
    "myStartRotation": {
        "myX": 3.1415927410125734,
        "myY": -3.1415927410125734
    },
    "myRotationVelocity": {
        "myX": 0.7853981852531433,
        "myY": 0.0
    },
    "myGravityModifier": 1.0,
    "myStartColor": {
        "myR": 1.0,
        "myG": 1.0,
        "myB": 1.0,
        "myA": 0.4901960790157318
    },
    "myEndColor": {
        "myR": 1.0,
        "myG": 0.0,
        "myB": 0.0,
        "myA": 0.0
    },
    "myStartSize": {
        "myX": 4.0,
        "myY": 4.0
    },
    "myEndSize": {
        "myX": 7.0,
        "myY": 7.0
    },
    "myBlendState": 1,
    "myTexture": "Assets\\Particles\\Sprites\\companionExplotion.dds",
    "myShapeData": {
        "myShapeType": 0,
        "myRadius": 1.0,
        "myRadiusThickness": 0.5
    }
}