{
    "myDuration": 0.20000000298023225,
    "myIsLoopable": false,
    "mySpawnRate": 200.0,
    "myLifetime": 0.4000000059604645,
    "myAcceleration": {
        "myX": 0.0,
        "myY": 40.79999923706055,
        "myZ": 0.0
    },
    "myStartVelocity": {
        "myX": 3.9000000953674318,
        "myY": 0.0,
        "myZ": 0.0
    },
    "myStartRotation": {
        "myX": 0.0,
        "myY": 0.0
    },
    "myRotationVelocity": {
        "myX": 0.0,
        "myY": 0.0
    },
    "myGravityModifier": 0.0,
    "myStartColor": {
        "myR": 0.0,
        "myG": 0.9833333492279053,
        "myB": 1.0,
        "myA": 1.0
    },
    "myEndColor": {
        "myR": 0.0,
        "myG": 1.0,
        "myB": 1.0,
        "myA": 0.5686274766921997
    },
    "myStartSize": {
        "myX": 0.10000000149011612,
        "myY": 0.4000000059604645
    },
    "myEndSize": {
        "myX": 0.0,
        "myY": 0.0
    },
    "myBlendState": 2,
    "myTexture": "Assets\\Particles\\Sprites\\dirt.dds",
    "myShapeData": {
        "myShapeType": 0,
        "myRadius": 3.0,
        "myRadiusThickness": 0.0
    }
}