{
    "myDuration": 0.0010000000474974514,
    "myIsLoopable": true,
    "mySpawnRate": 200.0,
    "myLifetime": 0.5,
    "myAcceleration": {
        "myX": 0.0,
        "myY": 9.0,
        "myZ": 0.0
    },
    "myStartVelocity": {
        "myX": -2.0,
        "myY": 0.0,
        "myZ": 0.0
    },
    "myStartRotation": {
        "myX": 0.0,
        "myY": 0.0
    },
    "myRotationVelocity": {
        "myX": 0.0,
        "myY": 0.0
    },
    "myGravityModifier": 0.0,
    "myStartColor": {
        "myR": 0.5833333730697632,
        "myG": 1.0,
        "myB": 0.0,
        "myA": 1.0
    },
    "myEndColor": {
        "myR": 0.1484375,
        "myG": 1.0,
        "myB": 0.0,
        "myA": 0.0
    },
    "myStartSize": {
        "myX": 0.15000000596046449,
        "myY": 0.15000000596046449
    },
    "myEndSize": {
        "myX": 0.05000000074505806,
        "myY": 0.05000000074505806
    },
    "myBlendState": 1,
    "myTexture": "Assets\\Particles\\Sprites\\healParticle.dds",
    "myShapeData": {
        "myShapeType": 0,
        "myRadius": 1.0,
        "myRadiusThickness": 1.0
    }
}