^C:\USERS\STADOH1\DOCUMENTS\VISUAL STUDIO 2015\PROJECTS\COMMONUTILITIES\COMMONUTILITIES\DEBUG\DL_DEBUG.OBJ|C:\USERS\STADOH1\DOCUMENTS\VISUAL STUDIO 2015\PROJECTS\COMMONUTILITIES\COMMONUTILITIES\DEBUG\DL_STACKWALKER.OBJ|C:\USERS\STADOH1\DOCUMENTS\VISUAL STUDIO 2015\PROJECTS\COMMONUTILITIES\COMMONUTILITIES\DEBUG\INPUTMANAGER.OBJ|C:\USERS\STADOH1\DOCUMENTS\VISUAL STUDIO 2015\PROJECTS\COMMONUTILITIES\COMMONUTILITIES\DEBUG\STACKWALKER.OBJ|C:\USERS\STADOH1\DOCUMENTS\VISUAL STUDIO 2015\PROJECTS\COMMONUTILITIES\COMMONUTILITIES\DEBUG\TIMER.OBJ
C:\WINDOWS\GLOBALIZATION\SORTING\SORTDEFAULT.NLS
C:\USERS\STADOH1\DOCUMENTS\VISUAL STUDIO 2015\PROJECTS\COMMONUTILITIES\COMMONUTILITIES\DEBUG\DL_DEBUG.OBJ
C:\WINDOWS\SYSTEM32\TZRES.DLL
C:\USERS\STADOH1\DOCUMENTS\VISUAL STUDIO 2015\PROJECTS\COMMONUTILITIES\COMMONUTILITIES\DEBUG\DL_STACKWALKER.OBJ
C:\USERS\STADOH1\DOCUMENTS\VISUAL STUDIO 2015\PROJECTS\COMMONUTILITIES\COMMONUTILITIES\DEBUG\INPUTMANAGER.OBJ
C:\USERS\STADOH1\DOCUMENTS\VISUAL STUDIO 2015\PROJECTS\COMMONUTILITIES\COMMONUTILITIES\DEBUG\STACKWALKER.OBJ
C:\USERS\STADOH1\DOCUMENTS\VISUAL STUDIO 2015\PROJECTS\COMMONUTILITIES\COMMONUTILITIES\DEBUG\TIMER.OBJ
