{
	"stubbler":
	{
		"spriteIdle": "Sprites/enemies/basicBeard_idle.dds",
		"spriteMoving": "Sprites/enemies/basicBeard_walk.dds",
		"spriteDying": "Sprites/enemies/basicBeard_death.dds",
		"unitID": 0,
		"maxHealth": 2,
		"movementSpeed": 9,
		"sightRange":20.0,
		"damage": 1,
		"colliderRadius":1.0
	},
	"cannonBeard":
	{
		"spriteIdle": "Sprites/enemies/cannonBeard_idle.dds",
		"spriteFire": "Sprites/enemies/cannonbeard_fire.dds",
		"spriteDeath": "Sprites/enemies/cannonbeard_death.dds",
		"unitID": 1,
		"attackSpeed": 1,
		"projectileSpeed": 10,
		"damage": 1,
		"maxHealth": 1,
		"sightRange": 20,
		"colliderRadius": 1.3
	},
	"stubblerElite":
	{
		"spriteIdle": "Sprites/enemies/eliteBeard_idle.dds",
		"spriteMoving": "Sprites/enemies/eliteBeard_walk.dds",
		"spriteDying": "Sprites/enemies/eliteBeard_death.dds",
		"unitID": 2,
		"maxHealth": 7,
		"movementSpeed": 4,
		"sightRange":20.0,
		"damage": 1,
		"colliderRadius":1.0
	},
	"cannonBeardElite":
	{
		"spriteIdle": "Sprites/enemies/cannonBeard_idle.dds",
		"spriteFire": "Sprites/enemies/cannonbeard_fire.dds",
		"spriteDeath": "Sprites/enemies/cannonbeard_death.dds",
		"unitID": 3,
		"attackSpeed": 0.5,
		"projectileSpeed": 20,
		"damage": 1,
		"maxHealth": 2,
		"sightRange": 15,
		"colliderRadius": 1.3
	}
}
