{
	"music":
	{
		"menu": "menu.wav",
		"Entrance": "tutorial.mp3",
		"Library": "hub.mp3",
		"Attic": "zone1.mp3",
		"Mansion": "zone2.mp3",
		"credits": "credits.wav"
	},
	"sound":
	{
		"playerHurt1": "playerHurt1.wav",
		"playerHurt2": "playerHurt2.wav",
		"playerHurt3": "playerHurt3.wav",
		"playerDeath1": "playerDeath1.wav",
		"playerDeath2": "playerDeath2.wav",
		"playerHeal": "playerHeal.wav",
		"wandThrow": "wandThrow.wav",
		"wandCatch": "wandCatch.wav",
		"playerWalk1": "playerWalk1.wav",
		"playerWalk2": "playerWalk2.wav",
		"playerWalk3": "playerWalk3.wav",
		"playerWalk4": "playerWalk4.wav",
		"playerTeleport": "playerTeleport.wav",
		"playerRespawn" : "playerRespawn.wav",
		"beardWalk1": "beardWalk1.wav",
		"beardWalk2": "beardWalk2.wav",
		"beardWalk3": "beardWalk3.wav",
		"beardWalk4": "beardWalk4.wav",
		"enemyShoot1": "enemyShoot1.wav",
		"enemyShoot2": "enemyShoot2.wav",
		"enemyHurt1": "enemyHurt1.wav",
		"enemyHurt2": "enemyHurt2.wav",
		"enemyHurt3": "enemyHurt3.wav",
		"enemyHurt4": "enemyHurt4.wav",
		"enemyDeath": "enemyDeath.wav",
		"cannonShotImpact1": "cannonShotImpact1.wav",
		"cannonShotImpact2": "cannonShotImpact2.wav",
		"wandHittingWall": "wandHittingWall.wav",
		"openDoor": "openDoor.wav",
		"openChest": "openChest.wav",
		"pickupLoot": "pickupLoot.wav",
		"menuButtonClick":  "menuButtonClick.wav",
		"pullLever": "pullLever.wav",
		"crateBreak1": "crateBreak1.wav",
		"crateBreak2": "crateBreak2.wav",
		"crateBreak3": "crateBreak3.wav",
		"crateBreak4": "crateBreak4.wav",
		"vaseBreak1": "vaseBreak1.wav",
		"vaseBreak2": "vaseBreak2.wav",
		"vaseBreak3": "vaseBreak3.wav"
	}
}
