{
    "myDuration": 0.5,
    "myIsLoopable": false,
    "mySpawnRate": 140.60000610351563,
    "myLifetime": 0.10000000149011612,
    "myAcceleration": {
        "myX": 0.0,
        "myY": 5.300000190734863,
        "myZ": 0.0
    },
    "myStartVelocity": {
        "myX": 0.0,
        "myY": 6.800000190734863,
        "myZ": 0.0
    },
    "myStartRotation": {
        "myX": 0.0,
        "myY": 0.0
    },
    "myRotationVelocity": {
        "myX": 0.0,
        "myY": 0.0
    },
    "myGravityModifier": 0.0,
    "myStartColor": {
        "myR": 1.0,
        "myG": 1.0,
        "myB": 1.0,
        "myA": 1.0
    },
    "myEndColor": {
        "myR": 1.0,
        "myG": 1.0,
        "myB": 1.0,
        "myA": 0.5686274766921997
    },
    "myStartSize": {
        "myX": 0.05000000074505806,
        "myY": 0.6000000238418579
    },
    "myEndSize": {
        "myX": 0.0,
        "myY": 0.0
    },
    "myBlendState": 2,
    "myTexture": "Assets\\Particles\\Sprites\\dirt.dds",
    "myShapeData": {
        "myShapeType": 1,
        "myBoxSize": {
            "myX": 0.30000001192092898,
            "myY": 0.30000001192092898,
            "myZ": 0.30000001192092898
        },
        "myBoxThickness": 1.0
    }
}