{
    "SpriteSlicerTest": {
        "amountOfFrames": 3,
        "frameSizeInPixelsX": 24,
        "frameSizeInPixelsY": 24,
        "type": "oneshot",
        "padding": 0,
        "spriteSource": "sprites/level2/basketballHoop_animated.dds",
        "timeBetweenFrame": 0.15
    }
}
