{
    "myDuration": 0.10000000149011612,
    "myIsLoopable": true,
    "mySpawnRate": 1.5,
    "myLifetime": 1.600000023841858,
    "myAcceleration": {
        "myX": 0.0,
        "myY": -0.20000000298023225,
        "myZ": 0.0
    },
    "myStartVelocity": {
        "myX": 0.0,
        "myY": 0.8999999761581421,
        "myZ": 0.0
    },
    "myStartRotation": {
        "myX": 3.054326057434082,
        "myY": 3.2288591861724855
    },
    "myRotationVelocity": {
        "myX": 0.0872664600610733,
        "myY": -0.0872664600610733
    },
    "myGravityModifier": 0.0,
    "myStartColor": {
        "myR": 1.0,
        "myG": 0.0,
        "myB": 0.0,
        "myA": 1.0
    },
    "myEndColor": {
        "myR": 1.0,
        "myG": 0.0,
        "myB": 0.0,
        "myA": 0.0
    },
    "myStartSize": {
        "myX": 0.05000000074505806,
        "myY": 0.05000000074505806
    },
    "myEndSize": {
        "myX": 0.5,
        "myY": 0.5
    },
    "myBlendState": 1,
    "myTexture": "Assets\\Particles\\Sprites\\heartParticle.dds",
    "myShapeData": {
        "myShapeType": 1,
        "myBoxSize": {
            "myX": 0.05000000074505806,
            "myY": 0.0,
            "myZ": 0.05000000074505806
        },
        "myBoxThickness": 0.0
    }
}