{
    "myDuration": 0.10000000149011612,
    "myIsLoopable": false,
    "mySpawnRate": 20.0,
    "myLifetime": 0.6000000238418579,
    "myAcceleration": {
        "myX": 0.0,
        "myY": -3.0,
        "myZ": 0.0
    },
    "myStartVelocity": {
        "myX": 0.0,
        "myY": 2.0,
        "myZ": 0.0
    },
    "myStartRotation": {
        "myX": 1.5707963705062867,
        "myY": 3.1415927410125734
    },
    "myRotationVelocity": {
        "myX": 3.1415927410125734,
        "myY": 3.1415927410125734
    },
    "myGravityModifier": 0.0,
    "myStartColor": {
        "myR": 0.984375,
        "myG": 0.6608437895774841,
        "myB": 0.41343754529953005,
        "myA": 1.0
    },
    "myEndColor": {
        "myR": 1.0,
        "myG": 0.6499999761581421,
        "myB": 0.0,
        "myA": 0.0
    },
    "myStartSize": {
        "myX": 0.30000001192092898,
        "myY": 0.30000001192092898
    },
    "myEndSize": {
        "myX": 0.0010000000474974514,
        "myY": 0.0010000000474974514
    },
    "myBlendState": 1,
    "myTexture": "Assets\\Particles\\Sprites\\hoopGrabParticle.dds",
    "myShapeData": {
        "myShapeType": 2
    }
}