{
    "myDuration": 5.0,
    "myIsLoopable": true,
    "mySpawnRate": 50.0,
    "myLifetime": 0.5,
    "myAcceleration": {
        "myX": 0.0,
        "myY": 0.0,
        "myZ": 0.0
    },
    "myStartVelocity": {
        "myX": 0.0,
        "myY": 1.5,
        "myZ": -1.5
    },
    "myStartRotation": {
        "myX": 0.0,
        "myY": 0.0
    },
    "myRotationVelocity": {
        "myX": 0.0,
        "myY": 0.0
    },
    "myGravityModifier": 0.8999999761581421,
    "myStartColor": {
        "myR": 0.860382080078125,
        "myG": 0.8971852660179138,
        "myB": 0.9453125,
        "myA": 0.03921568766236305
    },
    "myEndColor": {
        "myR": 0.6402000188827515,
        "myG": 0.7831133604049683,
        "myB": 0.9700000286102295,
        "myA": 1.0
    },
    "myStartSize": {
        "myX": 0.05000000074505806,
        "myY": 0.05000000074505806
    },
    "myEndSize": {
        "myX": 0.10000000149011612,
        "myY": 0.10000000149011612
    },
    "myBlendState": 1,
    "myTexture": "Assets\\Particles\\Sprites\\waterParticle.dds",
    "myShapeData": {
        "myShapeType": 1,
        "myBoxSize": {
            "myX": 1.0,
            "myY": 0.30000001192092898,
            "myZ": 0.30000001192092898
        },
        "myBoxThickness": 0.0
    }
}