^C:\USERS\STADDE1\DOCUMENTS\VISUAL STUDIO 2015\PROJECTS\CHRISTIAN DE ORLEANS V1\COMMONUTILITIES\DEBUG\SIMPLEMATH.OBJ|C:\USERS\STADDE1\DOCUMENTS\VISUAL STUDIO 2015\PROJECTS\CHRISTIAN DE ORLEANS V1\COMMONUTILITIES\DEBUG\TIMER.OBJ
C:\USERS\STADDE1\DOCUMENTS\VISUAL STUDIO 2015\PROJECTS\CHRISTIAN DE ORLEANS V1\DEBUG\COMMONUTILITIES.LIB
^C:\USERS\STADDE1\DOCUMENTS\VISUAL STUDIO 2015\PROJECTS\LABB 15 - INPUT\COMMONUTILITIES\DEBUG\INPUTMANAGER.OBJ|C:\USERS\STADDE1\DOCUMENTS\VISUAL STUDIO 2015\PROJECTS\LABB 15 - INPUT\COMMONUTILITIES\DEBUG\SIMPLEMATH.OBJ|C:\USERS\STADDE1\DOCUMENTS\VISUAL STUDIO 2015\PROJECTS\LABB 15 - INPUT\COMMONUTILITIES\DEBUG\TIMER.OBJ
C:\USERS\STADDE1\DOCUMENTS\VISUAL STUDIO 2015\PROJECTS\LABB 15 - INPUT\DEBUG\COMMONUTILITIES.LIB
